===========Generating Bitstream===========
# IOPINS0_0 (count=28)
00000000: 7f 00 00 00 00 00 00 00 b6 6d 1b 00 00 00 00 00
00000010: 00 00 00 00 00 00 00 00 00 00 00 00
# IOPINS0_1 (count=28)
0000001c: 80 00 00 00 00 00 00 00 36 00 c0 00 00 00 00 00
0000002c: 00 00 00 00 00 00 00 00 00 00 00 00
# IOPINS0_2 (count=28)
00000038: 00 00 00 00 00 00 00 00 00 00 00 00 00 00 00 00
00000048: 00 00 00 00 00 00 00 00 00 00 00 00
# IOPINS0_3 (count=28)
00000054: 00 00 00 00 00 00 00 00 80 0d 00 00 00 00 00 00
00000064: 00 00 00 00 00 00 00 00 00 00 00 00
# IOPINS0_4 (count=28)
00000070: 00 00 00 00 00 00 00 00 00 00 00 00 00 00 00 00
00000080: 00 00 00 00 00 00 00 00 00 00 00 00
# CYDEV_CLK_IMO_CONFIG (count=4)
0000008c: 00 00 00 80
# CYDEV_CLK_ILO_CONFIG (count=4)
00000090: 00 00 00 80
# CYDEV_CLK_SELECT (count=4)
00000094: 00 00 00 00
# TR_GROUP0 (count=8)
00000098: 00 00 00 00 00 00 00 00
# HSIOM (count=16384)
000000a0: 00 00 00 00 00 00 00 00 00 00 00 00 00 00 00 00
000000b0: 00 00 00 00 00 00 00 00 00 00 00 00 00 00 00 00
000000c0: 00 00 00 00 00 00 00 00 00 00 00 00 00 00 00 00
000000d0: 00 00 00 00 00 00 00 00 00 00 00 00 00 00 00 00
000000e0: 00 00 00 00 00 00 00 00 00 00 00 00 00 00 00 00
000000f0: 00 00 00 00 00 00 00 00 00 00 00 00 00 00 00 00
00000100: 00 00 00 00 00 00 00 00 00 00 00 00 00 00 00 00
00000110: 00 00 00 00 00 00 00 00 00 00 00 00 00 00 00 00
00000120: 00 00 00 00 00 00 00 00 00 00 00 00 00 00 00 00
00000130: 00 00 00 00 00 00 00 00 00 00 00 00 00 00 00 00
00000140: 00 00 00 00 00 00 00 00 00 00 00 00 00 00 00 00
00000150: 00 00 00 00 00 00 00 00 00 00 00 00 00 00 00 00
00000160: 00 00 00 00 00 00 00 00 00 00 00 00 00 00 00 00
00000170: 00 00 00 00 00 00 00 00 00 00 00 00 00 00 00 00
00000180: 00 00 00 00 00 00 00 00 00 00 00 00 00 00 00 00
00000190: 00 00 00 00 00 00 00 00 00 00 00 00 00 00 00 00
000001a0: 00 00 00 00 00 00 00 00 00 00 00 00 00 00 00 00
000001b0: 00 00 00 00 00 00 00 00 00 00 00 00 00 00 00 00
000001c0: 00 00 00 00 00 00 00 00 00 00 00 00 00 00 00 00
000001d0: 00 00 00 00 00 00 00 00 00 00 00 00 00 00 00 00
000001e0: 00 00 00 00 00 00 00 00 00 00 00 00 00 00 00 00
000001f0: 00 00 00 00 00 00 00 00 00 00 00 00 00 00 00 00
00000200: 00 00 00 00 00 00 00 00 00 00 00 00 00 00 00 00
00000210: 00 00 00 00 00 00 00 00 00 00 00 00 00 00 00 00
00000220: 00 00 00 00 00 00 00 00 00 00 00 00 00 00 00 00
00000230: 00 00 00 00 00 00 00 00 00 00 00 00 00 00 00 00
00000240: 00 00 00 00 00 00 00 00 00 00 00 00 00 00 00 00
00000250: 00 00 00 00 00 00 00 00 00 00 00 00 00 00 00 00
00000260: 00 00 00 00 00 00 00 00 00 00 00 00 00 00 00 00
00000270: 00 00 00 00 00 00 00 00 00 00 00 00 00 00 00 00
00000280: 00 00 00 00 00 00 00 00 00 00 00 00 00 00 00 00
00000290: 00 00 00 00 00 00 00 00 00 00 00 00 00 00 00 00
000002a0: 00 00 00 00 00 00 00 00 00 00 00 00 00 00 00 00
000002b0: 00 00 00 00 00 00 00 00 00 00 00 00 00 00 00 00
000002c0: 00 00 00 00 00 00 00 00 00 00 00 00 00 00 00 00
000002d0: 00 00 00 00 00 00 00 00 00 00 00 00 00 00 00 00
000002e0: 00 00 00 00 00 00 00 00 00 00 00 00 00 00 00 00
000002f0: 00 00 00 00 00 00 00 00 00 00 00 00 00 00 00 00
00000300: 00 00 00 00 00 00 00 00 00 00 00 00 00 00 00 00
00000310: 00 00 00 00 00 00 00 00 00 00 00 00 00 00 00 00
00000320: 00 00 00 00 00 00 00 00 00 00 00 00 00 00 00 00
00000330: 00 00 00 00 00 00 00 00 00 00 00 00 00 00 00 00
00000340: 00 00 00 00 00 00 00 00 00 00 00 00 00 00 00 00
00000350: 00 00 00 00 00 00 00 00 00 00 00 00 00 00 00 00
00000360: 00 00 00 00 00 00 00 00 00 00 00 00 00 00 00 00
00000370: 00 00 00 00 00 00 00 00 00 00 00 00 00 00 00 00
00000380: 00 00 00 00 00 00 00 00 00 00 00 00 00 00 00 00
00000390: 00 00 00 00 00 00 00 00 00 00 00 00 00 00 00 00
000003a0: 00 ee 00 00 00 00 00 00 00 00 00 00 00 00 00 00
000003b0: 00 00 00 00 00 00 00 00 00 00 00 00 00 00 00 00
000003c0: 00 00 00 00 00 00 00 00 00 00 00 00 00 00 00 00
000003d0: 00 00 00 00 00 00 00 00 00 00 00 00 00 00 00 00
000003e0: 00 00 00 00 00 00 00 00 00 00 00 00 00 00 00 00
000003f0: 00 00 00 00 00 00 00 00 00 00 00 00 00 00 00 00
00000400: 00 00 00 00 00 00 00 00 00 00 00 00 00 00 00 00
00000410: 00 00 00 00 00 00 00 00 00 00 00 00 00 00 00 00
00000420: 00 00 00 00 00 00 00 00 00 00 00 00 00 00 00 00
00000430: 00 00 00 00 00 00 00 00 00 00 00 00 00 00 00 00
00000440: 00 00 00 00 00 00 00 00 00 00 00 00 00 00 00 00
00000450: 00 00 00 00 00 00 00 00 00 00 00 00 00 00 00 00
00000460: 00 00 00 00 00 00 00 00 00 00 00 00 00 00 00 00
00000470: 00 00 00 00 00 00 00 00 00 00 00 00 00 00 00 00
00000480: 00 00 00 00 00 00 00 00 00 00 00 00 00 00 00 00
00000490: 00 00 00 00 00 00 00 00 00 00 00 00 00 00 00 00
000004a0: 00 00 00 00 00 00 00 00 00 00 00 00 00 00 00 00
000004b0: 00 00 00 00 00 00 00 00 00 00 00 00 00 00 00 00
000004c0: 00 00 00 00 00 00 00 00 00 00 00 00 00 00 00 00
000004d0: 00 00 00 00 00 00 00 00 00 00 00 00 00 00 00 00
000004e0: 00 00 00 00 00 00 00 00 00 00 00 00 00 00 00 00
000004f0: 00 00 00 00 00 00 00 00 00 00 00 00 00 00 00 00
00000500: 00 00 00 00 00 00 00 00 00 00 00 00 00 00 00 00
00000510: 00 00 00 00 00 00 00 00 00 00 00 00 00 00 00 00
00000520: 00 00 00 00 00 00 00 00 00 00 00 00 00 00 00 00
00000530: 00 00 00 00 00 00 00 00 00 00 00 00 00 00 00 00
00000540: 00 00 00 00 00 00 00 00 00 00 00 00 00 00 00 00
00000550: 00 00 00 00 00 00 00 00 00 00 00 00 00 00 00 00
00000560: 00 00 00 00 00 00 00 00 00 00 00 00 00 00 00 00
00000570: 00 00 00 00 00 00 00 00 00 00 00 00 00 00 00 00
00000580: 00 00 00 00 00 00 00 00 00 00 00 00 00 00 00 00
00000590: 00 00 00 00 00 00 00 00 00 00 00 00 00 00 00 00
000005a0: 00 00 00 00 00 00 00 00 00 00 00 00 00 00 00 00
000005b0: 00 00 00 00 00 00 00 00 00 00 00 00 00 00 00 00
000005c0: 00 00 00 00 00 00 00 00 00 00 00 00 00 00 00 00
000005d0: 00 00 00 00 00 00 00 00 00 00 00 00 00 00 00 00
000005e0: 00 00 00 00 00 00 00 00 00 00 00 00 00 00 00 00
000005f0: 00 00 00 00 00 00 00 00 00 00 00 00 00 00 00 00
00000600: 00 00 00 00 00 00 00 00 00 00 00 00 00 00 00 00
00000610: 00 00 00 00 00 00 00 00 00 00 00 00 00 00 00 00
00000620: 00 00 00 00 00 00 00 00 00 00 00 00 00 00 00 00
00000630: 00 00 00 00 00 00 00 00 00 00 00 00 00 00 00 00
00000640: 00 00 00 00 00 00 00 00 00 00 00 00 00 00 00 00
00000650: 00 00 00 00 00 00 00 00 00 00 00 00 00 00 00 00
00000660: 00 00 00 00 00 00 00 00 00 00 00 00 00 00 00 00
00000670: 00 00 00 00 00 00 00 00 00 00 00 00 00 00 00 00
00000680: 00 00 00 00 00 00 00 00 00 00 00 00 00 00 00 00
00000690: 00 00 00 00 00 00 00 00 00 00 00 00 00 00 00 00
000006a0: 00 00 00 00 00 00 00 00 00 00 00 00 00 00 00 00
000006b0: 00 00 00 00 00 00 00 00 00 00 00 00 00 00 00 00
000006c0: 00 00 00 00 00 00 00 00 00 00 00 00 00 00 00 00
000006d0: 00 00 00 00 00 00 00 00 00 00 00 00 00 00 00 00
000006e0: 00 00 00 00 00 00 00 00 00 00 00 00 00 00 00 00
000006f0: 00 00 00 00 00 00 00 00 00 00 00 00 00 00 00 00
00000700: 00 00 00 00 00 00 00 00 00 00 00 00 00 00 00 00
00000710: 00 00 00 00 00 00 00 00 00 00 00 00 00 00 00 00
00000720: 00 00 00 00 00 00 00 00 00 00 00 00 00 00 00 00
00000730: 00 00 00 00 00 00 00 00 00 00 00 00 00 00 00 00
00000740: 00 00 00 00 00 00 00 00 00 00 00 00 00 00 00 00
00000750: 00 00 00 00 00 00 00 00 00 00 00 00 00 00 00 00
00000760: 00 00 00 00 00 00 00 00 00 00 00 00 00 00 00 00
00000770: 00 00 00 00 00 00 00 00 00 00 00 00 00 00 00 00
00000780: 00 00 00 00 00 00 00 00 00 00 00 00 00 00 00 00
00000790: 00 00 00 00 00 00 00 00 00 00 00 00 00 00 00 00
000007a0: 00 00 00 00 00 00 00 00 00 00 00 00 00 00 00 00
000007b0: 00 00 00 00 00 00 00 00 00 00 00 00 00 00 00 00
000007c0: 00 00 00 00 00 00 00 00 00 00 00 00 00 00 00 00
000007d0: 00 00 00 00 00 00 00 00 00 00 00 00 00 00 00 00
000007e0: 00 00 00 00 00 00 00 00 00 00 00 00 00 00 00 00
000007f0: 00 00 00 00 00 00 00 00 00 00 00 00 00 00 00 00
00000800: 00 00 00 00 00 00 00 00 00 00 00 00 00 00 00 00
00000810: 00 00 00 00 00 00 00 00 00 00 00 00 00 00 00 00
00000820: 00 00 00 00 00 00 00 00 00 00 00 00 00 00 00 00
00000830: 00 00 00 00 00 00 00 00 00 00 00 00 00 00 00 00
00000840: 00 00 00 00 00 00 00 00 00 00 00 00 00 00 00 00
00000850: 00 00 00 00 00 00 00 00 00 00 00 00 00 00 00 00
00000860: 00 00 00 00 00 00 00 00 00 00 00 00 00 00 00 00
00000870: 00 00 00 00 00 00 00 00 00 00 00 00 00 00 00 00
00000880: 00 00 00 00 00 00 00 00 00 00 00 00 00 00 00 00
00000890: 00 00 00 00 00 00 00 00 00 00 00 00 00 00 00 00
000008a0: 00 00 00 00 00 00 00 00 00 00 00 00 00 00 00 00
000008b0: 00 00 00 00 00 00 00 00 00 00 00 00 00 00 00 00
000008c0: 00 00 00 00 00 00 00 00 00 00 00 00 00 00 00 00
000008d0: 00 00 00 00 00 00 00 00 00 00 00 00 00 00 00 00
000008e0: 00 00 00 00 00 00 00 00 00 00 00 00 00 00 00 00
000008f0: 00 00 00 00 00 00 00 00 00 00 00 00 00 00 00 00
00000900: 00 00 00 00 00 00 00 00 00 00 00 00 00 00 00 00
00000910: 00 00 00 00 00 00 00 00 00 00 00 00 00 00 00 00
00000920: 00 00 00 00 00 00 00 00 00 00 00 00 00 00 00 00
00000930: 00 00 00 00 00 00 00 00 00 00 00 00 00 00 00 00
00000940: 00 00 00 00 00 00 00 00 00 00 00 00 00 00 00 00
00000950: 00 00 00 00 00 00 00 00 00 00 00 00 00 00 00 00
00000960: 00 00 00 00 00 00 00 00 00 00 00 00 00 00 00 00
00000970: 00 00 00 00 00 00 00 00 00 00 00 00 00 00 00 00
00000980: 00 00 00 00 00 00 00 00 00 00 00 00 00 00 00 00
00000990: 00 00 00 00 00 00 00 00 00 00 00 00 00 00 00 00
000009a0: 00 00 00 00 00 00 00 00 00 00 00 00 00 00 00 00
000009b0: 00 00 00 00 00 00 00 00 00 00 00 00 00 00 00 00
000009c0: 00 00 00 00 00 00 00 00 00 00 00 00 00 00 00 00
000009d0: 00 00 00 00 00 00 00 00 00 00 00 00 00 00 00 00
000009e0: 00 00 00 00 00 00 00 00 00 00 00 00 00 00 00 00
000009f0: 00 00 00 00 00 00 00 00 00 00 00 00 00 00 00 00
00000a00: 00 00 00 00 00 00 00 00 00 00 00 00 00 00 00 00
00000a10: 00 00 00 00 00 00 00 00 00 00 00 00 00 00 00 00
00000a20: 00 00 00 00 00 00 00 00 00 00 00 00 00 00 00 00
00000a30: 00 00 00 00 00 00 00 00 00 00 00 00 00 00 00 00
00000a40: 00 00 00 00 00 00 00 00 00 00 00 00 00 00 00 00
00000a50: 00 00 00 00 00 00 00 00 00 00 00 00 00 00 00 00
00000a60: 00 00 00 00 00 00 00 00 00 00 00 00 00 00 00 00
00000a70: 00 00 00 00 00 00 00 00 00 00 00 00 00 00 00 00
00000a80: 00 00 00 00 00 00 00 00 00 00 00 00 00 00 00 00
00000a90: 00 00 00 00 00 00 00 00 00 00 00 00 00 00 00 00
00000aa0: 00 00 00 00 00 00 00 00 00 00 00 00 00 00 00 00
00000ab0: 00 00 00 00 00 00 00 00 00 00 00 00 00 00 00 00
00000ac0: 00 00 00 00 00 00 00 00 00 00 00 00 00 00 00 00
00000ad0: 00 00 00 00 00 00 00 00 00 00 00 00 00 00 00 00
00000ae0: 00 00 00 00 00 00 00 00 00 00 00 00 00 00 00 00
00000af0: 00 00 00 00 00 00 00 00 00 00 00 00 00 00 00 00
00000b00: 00 00 00 00 00 00 00 00 00 00 00 00 00 00 00 00
00000b10: 00 00 00 00 00 00 00 00 00 00 00 00 00 00 00 00
00000b20: 00 00 00 00 00 00 00 00 00 00 00 00 00 00 00 00
00000b30: 00 00 00 00 00 00 00 00 00 00 00 00 00 00 00 00
00000b40: 00 00 00 00 00 00 00 00 00 00 00 00 00 00 00 00
00000b50: 00 00 00 00 00 00 00 00 00 00 00 00 00 00 00 00
00000b60: 00 00 00 00 00 00 00 00 00 00 00 00 00 00 00 00
00000b70: 00 00 00 00 00 00 00 00 00 00 00 00 00 00 00 00
00000b80: 00 00 00 00 00 00 00 00 00 00 00 00 00 00 00 00
00000b90: 00 00 00 00 00 00 00 00 00 00 00 00 00 00 00 00
00000ba0: 00 00 00 00 00 00 00 00 00 00 00 00 00 00 00 00
00000bb0: 00 00 00 00 00 00 00 00 00 00 00 00 00 00 00 00
00000bc0: 00 00 00 00 00 00 00 00 00 00 00 00 00 00 00 00
00000bd0: 00 00 00 00 00 00 00 00 00 00 00 00 00 00 00 00
00000be0: 00 00 00 00 00 00 00 00 00 00 00 00 00 00 00 00
00000bf0: 00 00 00 00 00 00 00 00 00 00 00 00 00 00 00 00
00000c00: 00 00 00 00 00 00 00 00 00 00 00 00 00 00 00 00
00000c10: 00 00 00 00 00 00 00 00 00 00 00 00 00 00 00 00
00000c20: 00 00 00 00 00 00 00 00 00 00 00 00 00 00 00 00
00000c30: 00 00 00 00 00 00 00 00 00 00 00 00 00 00 00 00
00000c40: 00 00 00 00 00 00 00 00 00 00 00 00 00 00 00 00
00000c50: 00 00 00 00 00 00 00 00 00 00 00 00 00 00 00 00
00000c60: 00 00 00 00 00 00 00 00 00 00 00 00 00 00 00 00
00000c70: 00 00 00 00 00 00 00 00 00 00 00 00 00 00 00 00
00000c80: 00 00 00 00 00 00 00 00 00 00 00 00 00 00 00 00
00000c90: 00 00 00 00 00 00 00 00 00 00 00 00 00 00 00 00
00000ca0: 00 00 00 00 00 00 00 00 00 00 00 00 00 00 00 00
00000cb0: 00 00 00 00 00 00 00 00 00 00 00 00 00 00 00 00
00000cc0: 00 00 00 00 00 00 00 00 00 00 00 00 00 00 00 00
00000cd0: 00 00 00 00 00 00 00 00 00 00 00 00 00 00 00 00
00000ce0: 00 00 00 00 00 00 00 00 00 00 00 00 00 00 00 00
00000cf0: 00 00 00 00 00 00 00 00 00 00 00 00 00 00 00 00
00000d00: 00 00 00 00 00 00 00 00 00 00 00 00 00 00 00 00
00000d10: 00 00 00 00 00 00 00 00 00 00 00 00 00 00 00 00
00000d20: 00 00 00 00 00 00 00 00 00 00 00 00 00 00 00 00
00000d30: 00 00 00 00 00 00 00 00 00 00 00 00 00 00 00 00
00000d40: 00 00 00 00 00 00 00 00 00 00 00 00 00 00 00 00
00000d50: 00 00 00 00 00 00 00 00 00 00 00 00 00 00 00 00
00000d60: 00 00 00 00 00 00 00 00 00 00 00 00 00 00 00 00
00000d70: 00 00 00 00 00 00 00 00 00 00 00 00 00 00 00 00
00000d80: 00 00 00 00 00 00 00 00 00 00 00 00 00 00 00 00
00000d90: 00 00 00 00 00 00 00 00 00 00 00 00 00 00 00 00
00000da0: 00 00 00 00 00 00 00 00 00 00 00 00 00 00 00 00
00000db0: 00 00 00 00 00 00 00 00 00 00 00 00 00 00 00 00
00000dc0: 00 00 00 00 00 00 00 00 00 00 00 00 00 00 00 00
00000dd0: 00 00 00 00 00 00 00 00 00 00 00 00 00 00 00 00
00000de0: 00 00 00 00 00 00 00 00 00 00 00 00 00 00 00 00
00000df0: 00 00 00 00 00 00 00 00 00 00 00 00 00 00 00 00
00000e00: 00 00 00 00 00 00 00 00 00 00 00 00 00 00 00 00
00000e10: 00 00 00 00 00 00 00 00 00 00 00 00 00 00 00 00
00000e20: 00 00 00 00 00 00 00 00 00 00 00 00 00 00 00 00
00000e30: 00 00 00 00 00 00 00 00 00 00 00 00 00 00 00 00
00000e40: 00 00 00 00 00 00 00 00 00 00 00 00 00 00 00 00
00000e50: 00 00 00 00 00 00 00 00 00 00 00 00 00 00 00 00
00000e60: 00 00 00 00 00 00 00 00 00 00 00 00 00 00 00 00
00000e70: 00 00 00 00 00 00 00 00 00 00 00 00 00 00 00 00
00000e80: 00 00 00 00 00 00 00 00 00 00 00 00 00 00 00 00
00000e90: 00 00 00 00 00 00 00 00 00 00 00 00 00 00 00 00
00000ea0: 00 00 00 00 00 00 00 00 00 00 00 00 00 00 00 00
00000eb0: 00 00 00 00 00 00 00 00 00 00 00 00 00 00 00 00
00000ec0: 00 00 00 00 00 00 00 00 00 00 00 00 00 00 00 00
00000ed0: 00 00 00 00 00 00 00 00 00 00 00 00 00 00 00 00
00000ee0: 00 00 00 00 00 00 00 00 00 00 00 00 00 00 00 00
00000ef0: 00 00 00 00 00 00 00 00 00 00 00 00 00 00 00 00
00000f00: 00 00 00 00 00 00 00 00 00 00 00 00 00 00 00 00
00000f10: 00 00 00 00 00 00 00 00 00 00 00 00 00 00 00 00
00000f20: 00 00 00 00 00 00 00 00 00 00 00 00 00 00 00 00
00000f30: 00 00 00 00 00 00 00 00 00 00 00 00 00 00 00 00
00000f40: 00 00 00 00 00 00 00 00 00 00 00 00 00 00 00 00
00000f50: 00 00 00 00 00 00 00 00 00 00 00 00 00 00 00 00
00000f60: 00 00 00 00 00 00 00 00 00 00 00 00 00 00 00 00
00000f70: 00 00 00 00 00 00 00 00 00 00 00 00 00 00 00 00
00000f80: 00 00 00 00 00 00 00 00 00 00 00 00 00 00 00 00
00000f90: 00 00 00 00 00 00 00 00 00 00 00 00 00 00 00 00
00000fa0: 00 00 00 00 00 00 00 00 00 00 00 00 00 00 00 00
00000fb0: 00 00 00 00 00 00 00 00 00 00 00 00 00 00 00 00
00000fc0: 00 00 00 00 00 00 00 00 00 00 00 00 00 00 00 00
00000fd0: 00 00 00 00 00 00 00 00 00 00 00 00 00 00 00 00
00000fe0: 00 00 00 00 00 00 00 00 00 00 00 00 00 00 00 00
00000ff0: 00 00 00 00 00 00 00 00 00 00 00 00 00 00 00 00
00001000: 00 00 00 00 00 00 00 00 00 00 00 00 00 00 00 00
00001010: 00 00 00 00 00 00 00 00 00 00 00 00 00 00 00 00
00001020: 00 00 00 00 00 00 00 00 00 00 00 00 00 00 00 00
00001030: 00 00 00 00 00 00 00 00 00 00 00 00 00 00 00 00
00001040: 00 00 00 00 00 00 00 00 00 00 00 00 00 00 00 00
00001050: 00 00 00 00 00 00 00 00 00 00 00 00 00 00 00 00
00001060: 00 00 00 00 00 00 00 00 00 00 00 00 00 00 00 00
00001070: 00 00 00 00 00 00 00 00 00 00 00 00 00 00 00 00
00001080: 00 00 00 00 00 00 00 00 00 00 00 00 00 00 00 00
00001090: 00 00 00 00 00 00 00 00 00 00 00 00 00 00 00 00
000010a0: 00 00 00 00 00 00 00 00 00 00 00 00 00 00 00 00
000010b0: 00 00 00 00 00 00 00 00 00 00 00 00 00 00 00 00
000010c0: 00 00 00 00 00 00 00 00 00 00 00 00 00 00 00 00
000010d0: 00 00 00 00 00 00 00 00 00 00 00 00 00 00 00 00
000010e0: 00 00 00 00 00 00 00 00 00 00 00 00 00 00 00 00
000010f0: 00 00 00 00 00 00 00 00 00 00 00 00 00 00 00 00
00001100: 00 00 00 00 00 00 00 00 00 00 00 00 00 00 00 00
00001110: 00 00 00 00 00 00 00 00 00 00 00 00 00 00 00 00
00001120: 00 00 00 00 00 00 00 00 00 00 00 00 00 00 00 00
00001130: 00 00 00 00 00 00 00 00 00 00 00 00 00 00 00 00
00001140: 00 00 00 00 00 00 00 00 00 00 00 00 00 00 00 00
00001150: 00 00 00 00 00 00 00 00 00 00 00 00 00 00 00 00
00001160: 00 00 00 00 00 00 00 00 00 00 00 00 00 00 00 00
00001170: 00 00 00 00 00 00 00 00 00 00 00 00 00 00 00 00
00001180: 00 00 00 00 00 00 00 00 00 00 00 00 00 00 00 00
00001190: 00 00 00 00 00 00 00 00 00 00 00 00 00 00 00 00
000011a0: 00 00 00 00 00 00 00 00 00 00 00 00 00 00 00 00
000011b0: 00 00 00 00 00 00 00 00 00 00 00 00 00 00 00 00
000011c0: 00 00 00 00 00 00 00 00 00 00 00 00 00 00 00 00
000011d0: 00 00 00 00 00 00 00 00 00 00 00 00 00 00 00 00
000011e0: 00 00 00 00 00 00 00 00 00 00 00 00 00 00 00 00
000011f0: 00 00 00 00 00 00 00 00 00 00 00 00 00 00 00 00
00001200: 00 00 00 00 00 00 00 00 00 00 00 00 00 00 00 00
00001210: 00 00 00 00 00 00 00 00 00 00 00 00 00 00 00 00
00001220: 00 00 00 00 00 00 00 00 00 00 00 00 00 00 00 00
00001230: 00 00 00 00 00 00 00 00 00 00 00 00 00 00 00 00
00001240: 00 00 00 00 00 00 00 00 00 00 00 00 00 00 00 00
00001250: 00 00 00 00 00 00 00 00 00 00 00 00 00 00 00 00
00001260: 00 00 00 00 00 00 00 00 00 00 00 00 00 00 00 00
00001270: 00 00 00 00 00 00 00 00 00 00 00 00 00 00 00 00
00001280: 00 00 00 00 00 00 00 00 00 00 00 00 00 00 00 00
00001290: 00 00 00 00 00 00 00 00 00 00 00 00 00 00 00 00
000012a0: 00 00 00 00 00 00 00 00 00 00 00 00 00 00 00 00
000012b0: 00 00 00 00 00 00 00 00 00 00 00 00 00 00 00 00
000012c0: 00 00 00 00 00 00 00 00 00 00 00 00 00 00 00 00
000012d0: 00 00 00 00 00 00 00 00 00 00 00 00 00 00 00 00
000012e0: 00 00 00 00 00 00 00 00 00 00 00 00 00 00 00 00
000012f0: 00 00 00 00 00 00 00 00 00 00 00 00 00 00 00 00
00001300: 00 00 00 00 00 00 00 00 00 00 00 00 00 00 00 00
00001310: 00 00 00 00 00 00 00 00 00 00 00 00 00 00 00 00
00001320: 00 00 00 00 00 00 00 00 00 00 00 00 00 00 00 00
00001330: 00 00 00 00 00 00 00 00 00 00 00 00 00 00 00 00
00001340: 00 00 00 00 00 00 00 00 00 00 00 00 00 00 00 00
00001350: 00 00 00 00 00 00 00 00 00 00 00 00 00 00 00 00
00001360: 00 00 00 00 00 00 00 00 00 00 00 00 00 00 00 00
00001370: 00 00 00 00 00 00 00 00 00 00 00 00 00 00 00 00
00001380: 00 00 00 00 00 00 00 00 00 00 00 00 00 00 00 00
00001390: 00 00 00 00 00 00 00 00 00 00 00 00 00 00 00 00
000013a0: 00 00 00 00 00 00 00 00 00 00 00 00 00 00 00 00
000013b0: 00 00 00 00 00 00 00 00 00 00 00 00 00 00 00 00
000013c0: 00 00 00 00 00 00 00 00 00 00 00 00 00 00 00 00
000013d0: 00 00 00 00 00 00 00 00 00 00 00 00 00 00 00 00
000013e0: 00 00 00 00 00 00 00 00 00 00 00 00 00 00 00 00
000013f0: 00 00 00 00 00 00 00 00 00 00 00 00 00 00 00 00
00001400: 00 00 00 00 00 00 00 00 00 00 00 00 00 00 00 00
00001410: 00 00 00 00 00 00 00 00 00 00 00 00 00 00 00 00
00001420: 00 00 00 00 00 00 00 00 00 00 00 00 00 00 00 00
00001430: 00 00 00 00 00 00 00 00 00 00 00 00 00 00 00 00
00001440: 00 00 00 00 00 00 00 00 00 00 00 00 00 00 00 00
00001450: 00 00 00 00 00 00 00 00 00 00 00 00 00 00 00 00
00001460: 00 00 00 00 00 00 00 00 00 00 00 00 00 00 00 00
00001470: 00 00 00 00 00 00 00 00 00 00 00 00 00 00 00 00
00001480: 00 00 00 00 00 00 00 00 00 00 00 00 00 00 00 00
00001490: 00 00 00 00 00 00 00 00 00 00 00 00 00 00 00 00
000014a0: 00 00 00 00 00 00 00 00 00 00 00 00 00 00 00 00
000014b0: 00 00 00 00 00 00 00 00 00 00 00 00 00 00 00 00
000014c0: 00 00 00 00 00 00 00 00 00 00 00 00 00 00 00 00
000014d0: 00 00 00 00 00 00 00 00 00 00 00 00 00 00 00 00
000014e0: 00 00 00 00 00 00 00 00 00 00 00 00 00 00 00 00
000014f0: 00 00 00 00 00 00 00 00 00 00 00 00 00 00 00 00
00001500: 00 00 00 00 00 00 00 00 00 00 00 00 00 00 00 00
00001510: 00 00 00 00 00 00 00 00 00 00 00 00 00 00 00 00
00001520: 00 00 00 00 00 00 00 00 00 00 00 00 00 00 00 00
00001530: 00 00 00 00 00 00 00 00 00 00 00 00 00 00 00 00
00001540: 00 00 00 00 00 00 00 00 00 00 00 00 00 00 00 00
00001550: 00 00 00 00 00 00 00 00 00 00 00 00 00 00 00 00
00001560: 00 00 00 00 00 00 00 00 00 00 00 00 00 00 00 00
00001570: 00 00 00 00 00 00 00 00 00 00 00 00 00 00 00 00
00001580: 00 00 00 00 00 00 00 00 00 00 00 00 00 00 00 00
00001590: 00 00 00 00 00 00 00 00 00 00 00 00 00 00 00 00
000015a0: 00 00 00 00 00 00 00 00 00 00 00 00 00 00 00 00
000015b0: 00 00 00 00 00 00 00 00 00 00 00 00 00 00 00 00
000015c0: 00 00 00 00 00 00 00 00 00 00 00 00 00 00 00 00
000015d0: 00 00 00 00 00 00 00 00 00 00 00 00 00 00 00 00
000015e0: 00 00 00 00 00 00 00 00 00 00 00 00 00 00 00 00
000015f0: 00 00 00 00 00 00 00 00 00 00 00 00 00 00 00 00
00001600: 00 00 00 00 00 00 00 00 00 00 00 00 00 00 00 00
00001610: 00 00 00 00 00 00 00 00 00 00 00 00 00 00 00 00
00001620: 00 00 00 00 00 00 00 00 00 00 00 00 00 00 00 00
00001630: 00 00 00 00 00 00 00 00 00 00 00 00 00 00 00 00
00001640: 00 00 00 00 00 00 00 00 00 00 00 00 00 00 00 00
00001650: 00 00 00 00 00 00 00 00 00 00 00 00 00 00 00 00
00001660: 00 00 00 00 00 00 00 00 00 00 00 00 00 00 00 00
00001670: 00 00 00 00 00 00 00 00 00 00 00 00 00 00 00 00
00001680: 00 00 00 00 00 00 00 00 00 00 00 00 00 00 00 00
00001690: 00 00 00 00 00 00 00 00 00 00 00 00 00 00 00 00
000016a0: 00 00 00 00 00 00 00 00 00 00 00 00 00 00 00 00
000016b0: 00 00 00 00 00 00 00 00 00 00 00 00 00 00 00 00
000016c0: 00 00 00 00 00 00 00 00 00 00 00 00 00 00 00 00
000016d0: 00 00 00 00 00 00 00 00 00 00 00 00 00 00 00 00
000016e0: 00 00 00 00 00 00 00 00 00 00 00 00 00 00 00 00
000016f0: 00 00 00 00 00 00 00 00 00 00 00 00 00 00 00 00
00001700: 00 00 00 00 00 00 00 00 00 00 00 00 00 00 00 00
00001710: 00 00 00 00 00 00 00 00 00 00 00 00 00 00 00 00
00001720: 00 00 00 00 00 00 00 00 00 00 00 00 00 00 00 00
00001730: 00 00 00 00 00 00 00 00 00 00 00 00 00 00 00 00
00001740: 00 00 00 00 00 00 00 00 00 00 00 00 00 00 00 00
00001750: 00 00 00 00 00 00 00 00 00 00 00 00 00 00 00 00
00001760: 00 00 00 00 00 00 00 00 00 00 00 00 00 00 00 00
00001770: 00 00 00 00 00 00 00 00 00 00 00 00 00 00 00 00
00001780: 00 00 00 00 00 00 00 00 00 00 00 00 00 00 00 00
00001790: 00 00 00 00 00 00 00 00 00 00 00 00 00 00 00 00
000017a0: 00 00 00 00 00 00 00 00 00 00 00 00 00 00 00 00
000017b0: 00 00 00 00 00 00 00 00 00 00 00 00 00 00 00 00
000017c0: 00 00 00 00 00 00 00 00 00 00 00 00 00 00 00 00
000017d0: 00 00 00 00 00 00 00 00 00 00 00 00 00 00 00 00
000017e0: 00 00 00 00 00 00 00 00 00 00 00 00 00 00 00 00
000017f0: 00 00 00 00 00 00 00 00 00 00 00 00 00 00 00 00
00001800: 00 00 00 00 00 00 00 00 00 00 00 00 00 00 00 00
00001810: 00 00 00 00 00 00 00 00 00 00 00 00 00 00 00 00
00001820: 00 00 00 00 00 00 00 00 00 00 00 00 00 00 00 00
00001830: 00 00 00 00 00 00 00 00 00 00 00 00 00 00 00 00
00001840: 00 00 00 00 00 00 00 00 00 00 00 00 00 00 00 00
00001850: 00 00 00 00 00 00 00 00 00 00 00 00 00 00 00 00
00001860: 00 00 00 00 00 00 00 00 00 00 00 00 00 00 00 00
00001870: 00 00 00 00 00 00 00 00 00 00 00 00 00 00 00 00
00001880: 00 00 00 00 00 00 00 00 00 00 00 00 00 00 00 00
00001890: 00 00 00 00 00 00 00 00 00 00 00 00 00 00 00 00
000018a0: 00 00 00 00 00 00 00 00 00 00 00 00 00 00 00 00
000018b0: 00 00 00 00 00 00 00 00 00 00 00 00 00 00 00 00
000018c0: 00 00 00 00 00 00 00 00 00 00 00 00 00 00 00 00
000018d0: 00 00 00 00 00 00 00 00 00 00 00 00 00 00 00 00
000018e0: 00 00 00 00 00 00 00 00 00 00 00 00 00 00 00 00
000018f0: 00 00 00 00 00 00 00 00 00 00 00 00 00 00 00 00
00001900: 00 00 00 00 00 00 00 00 00 00 00 00 00 00 00 00
00001910: 00 00 00 00 00 00 00 00 00 00 00 00 00 00 00 00
00001920: 00 00 00 00 00 00 00 00 00 00 00 00 00 00 00 00
00001930: 00 00 00 00 00 00 00 00 00 00 00 00 00 00 00 00
00001940: 00 00 00 00 00 00 00 00 00 00 00 00 00 00 00 00
00001950: 00 00 00 00 00 00 00 00 00 00 00 00 00 00 00 00
00001960: 00 00 00 00 00 00 00 00 00 00 00 00 00 00 00 00
00001970: 00 00 00 00 00 00 00 00 00 00 00 00 00 00 00 00
00001980: 00 00 00 00 00 00 00 00 00 00 00 00 00 00 00 00
00001990: 00 00 00 00 00 00 00 00 00 00 00 00 00 00 00 00
000019a0: 00 00 00 00 00 00 00 00 00 00 00 00 00 00 00 00
000019b0: 00 00 00 00 00 00 00 00 00 00 00 00 00 00 00 00
000019c0: 00 00 00 00 00 00 00 00 00 00 00 00 00 00 00 00
000019d0: 00 00 00 00 00 00 00 00 00 00 00 00 00 00 00 00
000019e0: 00 00 00 00 00 00 00 00 00 00 00 00 00 00 00 00
000019f0: 00 00 00 00 00 00 00 00 00 00 00 00 00 00 00 00
00001a00: 00 00 00 00 00 00 00 00 00 00 00 00 00 00 00 00
00001a10: 00 00 00 00 00 00 00 00 00 00 00 00 00 00 00 00
00001a20: 00 00 00 00 00 00 00 00 00 00 00 00 00 00 00 00
00001a30: 00 00 00 00 00 00 00 00 00 00 00 00 00 00 00 00
00001a40: 00 00 00 00 00 00 00 00 00 00 00 00 00 00 00 00
00001a50: 00 00 00 00 00 00 00 00 00 00 00 00 00 00 00 00
00001a60: 00 00 00 00 00 00 00 00 00 00 00 00 00 00 00 00
00001a70: 00 00 00 00 00 00 00 00 00 00 00 00 00 00 00 00
00001a80: 00 00 00 00 00 00 00 00 00 00 00 00 00 00 00 00
00001a90: 00 00 00 00 00 00 00 00 00 00 00 00 00 00 00 00
00001aa0: 00 00 00 00 00 00 00 00 00 00 00 00 00 00 00 00
00001ab0: 00 00 00 00 00 00 00 00 00 00 00 00 00 00 00 00
00001ac0: 00 00 00 00 00 00 00 00 00 00 00 00 00 00 00 00
00001ad0: 00 00 00 00 00 00 00 00 00 00 00 00 00 00 00 00
00001ae0: 00 00 00 00 00 00 00 00 00 00 00 00 00 00 00 00
00001af0: 00 00 00 00 00 00 00 00 00 00 00 00 00 00 00 00
00001b00: 00 00 00 00 00 00 00 00 00 00 00 00 00 00 00 00
00001b10: 00 00 00 00 00 00 00 00 00 00 00 00 00 00 00 00
00001b20: 00 00 00 00 00 00 00 00 00 00 00 00 00 00 00 00
00001b30: 00 00 00 00 00 00 00 00 00 00 00 00 00 00 00 00
00001b40: 00 00 00 00 00 00 00 00 00 00 00 00 00 00 00 00
00001b50: 00 00 00 00 00 00 00 00 00 00 00 00 00 00 00 00
00001b60: 00 00 00 00 00 00 00 00 00 00 00 00 00 00 00 00
00001b70: 00 00 00 00 00 00 00 00 00 00 00 00 00 00 00 00
00001b80: 00 00 00 00 00 00 00 00 00 00 00 00 00 00 00 00
00001b90: 00 00 00 00 00 00 00 00 00 00 00 00 00 00 00 00
00001ba0: 00 00 00 00 00 00 00 00 00 00 00 00 00 00 00 00
00001bb0: 00 00 00 00 00 00 00 00 00 00 00 00 00 00 00 00
00001bc0: 00 00 00 00 00 00 00 00 00 00 00 00 00 00 00 00
00001bd0: 00 00 00 00 00 00 00 00 00 00 00 00 00 00 00 00
00001be0: 00 00 00 00 00 00 00 00 00 00 00 00 00 00 00 00
00001bf0: 00 00 00 00 00 00 00 00 00 00 00 00 00 00 00 00
00001c00: 00 00 00 00 00 00 00 00 00 00 00 00 00 00 00 00
00001c10: 00 00 00 00 00 00 00 00 00 00 00 00 00 00 00 00
00001c20: 00 00 00 00 00 00 00 00 00 00 00 00 00 00 00 00
00001c30: 00 00 00 00 00 00 00 00 00 00 00 00 00 00 00 00
00001c40: 00 00 00 00 00 00 00 00 00 00 00 00 00 00 00 00
00001c50: 00 00 00 00 00 00 00 00 00 00 00 00 00 00 00 00
00001c60: 00 00 00 00 00 00 00 00 00 00 00 00 00 00 00 00
00001c70: 00 00 00 00 00 00 00 00 00 00 00 00 00 00 00 00
00001c80: 00 00 00 00 00 00 00 00 00 00 00 00 00 00 00 00
00001c90: 00 00 00 00 00 00 00 00 00 00 00 00 00 00 00 00
00001ca0: 00 00 00 00 00 00 00 00 00 00 00 00 00 00 00 00
00001cb0: 00 00 00 00 00 00 00 00 00 00 00 00 00 00 00 00
00001cc0: 00 00 00 00 00 00 00 00 00 00 00 00 00 00 00 00
00001cd0: 00 00 00 00 00 00 00 00 00 00 00 00 00 00 00 00
00001ce0: 00 00 00 00 00 00 00 00 00 00 00 00 00 00 00 00
00001cf0: 00 00 00 00 00 00 00 00 00 00 00 00 00 00 00 00
00001d00: 00 00 00 00 00 00 00 00 00 00 00 00 00 00 00 00
00001d10: 00 00 00 00 00 00 00 00 00 00 00 00 00 00 00 00
00001d20: 00 00 00 00 00 00 00 00 00 00 00 00 00 00 00 00
00001d30: 00 00 00 00 00 00 00 00 00 00 00 00 00 00 00 00
00001d40: 00 00 00 00 00 00 00 00 00 00 00 00 00 00 00 00
00001d50: 00 00 00 00 00 00 00 00 00 00 00 00 00 00 00 00
00001d60: 00 00 00 00 00 00 00 00 00 00 00 00 00 00 00 00
00001d70: 00 00 00 00 00 00 00 00 00 00 00 00 00 00 00 00
00001d80: 00 00 00 00 00 00 00 00 00 00 00 00 00 00 00 00
00001d90: 00 00 00 00 00 00 00 00 00 00 00 00 00 00 00 00
00001da0: 00 00 00 00 00 00 00 00 00 00 00 00 00 00 00 00
00001db0: 00 00 00 00 00 00 00 00 00 00 00 00 00 00 00 00
00001dc0: 00 00 00 00 00 00 00 00 00 00 00 00 00 00 00 00
00001dd0: 00 00 00 00 00 00 00 00 00 00 00 00 00 00 00 00
00001de0: 00 00 00 00 00 00 00 00 00 00 00 00 00 00 00 00
00001df0: 00 00 00 00 00 00 00 00 00 00 00 00 00 00 00 00
00001e00: 00 00 00 00 00 00 00 00 00 00 00 00 00 00 00 00
00001e10: 00 00 00 00 00 00 00 00 00 00 00 00 00 00 00 00
00001e20: 00 00 00 00 00 00 00 00 00 00 00 00 00 00 00 00
00001e30: 00 00 00 00 00 00 00 00 00 00 00 00 00 00 00 00
00001e40: 00 00 00 00 00 00 00 00 00 00 00 00 00 00 00 00
00001e50: 00 00 00 00 00 00 00 00 00 00 00 00 00 00 00 00
00001e60: 00 00 00 00 00 00 00 00 00 00 00 00 00 00 00 00
00001e70: 00 00 00 00 00 00 00 00 00 00 00 00 00 00 00 00
00001e80: 00 00 00 00 00 00 00 00 00 00 00 00 00 00 00 00
00001e90: 00 00 00 00 00 00 00 00 00 00 00 00 00 00 00 00
00001ea0: 00 00 00 00 00 00 00 00 00 00 00 00 00 00 00 00
00001eb0: 00 00 00 00 00 00 00 00 00 00 00 00 00 00 00 00
00001ec0: 00 00 00 00 00 00 00 00 00 00 00 00 00 00 00 00
00001ed0: 00 00 00 00 00 00 00 00 00 00 00 00 00 00 00 00
00001ee0: 00 00 00 00 00 00 00 00 00 00 00 00 00 00 00 00
00001ef0: 00 00 00 00 00 00 00 00 00 00 00 00 00 00 00 00
00001f00: 00 00 00 00 00 00 00 00 00 00 00 00 00 00 00 00
00001f10: 00 00 00 00 00 00 00 00 00 00 00 00 00 00 00 00
00001f20: 00 00 00 00 00 00 00 00 00 00 00 00 00 00 00 00
00001f30: 00 00 00 00 00 00 00 00 00 00 00 00 00 00 00 00
00001f40: 00 00 00 00 00 00 00 00 00 00 00 00 00 00 00 00
00001f50: 00 00 00 00 00 00 00 00 00 00 00 00 00 00 00 00
00001f60: 00 00 00 00 00 00 00 00 00 00 00 00 00 00 00 00
00001f70: 00 00 00 00 00 00 00 00 00 00 00 00 00 00 00 00
00001f80: 00 00 00 00 00 00 00 00 00 00 00 00 00 00 00 00
00001f90: 00 00 00 00 00 00 00 00 00 00 00 00 00 00 00 00
00001fa0: 00 00 00 00 00 00 00 00 00 00 00 00 00 00 00 00
00001fb0: 00 00 00 00 00 00 00 00 00 00 00 00 00 00 00 00
00001fc0: 00 00 00 00 00 00 00 00 00 00 00 00 00 00 00 00
00001fd0: 00 00 00 00 00 00 00 00 00 00 00 00 00 00 00 00
00001fe0: 00 00 00 00 00 00 00 00 00 00 00 00 00 00 00 00
00001ff0: 00 00 00 00 00 00 00 00 00 00 00 00 00 00 00 00
00002000: 00 00 00 00 00 00 00 00 00 00 00 00 00 00 00 00
00002010: 00 00 00 00 00 00 00 00 00 00 00 00 00 00 00 00
00002020: 00 00 00 00 00 00 00 00 00 00 00 00 00 00 00 00
00002030: 00 00 00 00 00 00 00 00 00 00 00 00 00 00 00 00
00002040: 00 00 00 00 00 00 00 00 00 00 00 00 00 00 00 00
00002050: 00 00 00 00 00 00 00 00 00 00 00 00 00 00 00 00
00002060: 00 00 00 00 00 00 00 00 00 00 00 00 00 00 00 00
00002070: 00 00 00 00 00 00 00 00 00 00 00 00 00 00 00 00
00002080: 00 00 00 00 00 00 00 00 00 00 00 00 00 00 00 00
00002090: 00 00 00 00 00 00 00 00 00 00 00 00 00 00 00 00
000020a0: 00 00 00 00 00 00 00 00 00 00 00 00 00 00 00 00
000020b0: 00 00 00 00 00 00 00 00 00 00 00 00 00 00 00 00
000020c0: 00 00 00 00 00 00 00 00 00 00 00 00 00 00 00 00
000020d0: 00 00 00 00 00 00 00 00 00 00 00 00 00 00 00 00
000020e0: 00 00 00 00 00 00 00 00 00 00 00 00 00 00 00 00
000020f0: 00 00 00 00 00 00 00 00 00 00 00 00 00 00 00 00
00002100: 00 00 00 00 00 00 00 00 00 00 00 00 00 00 00 00
00002110: 00 00 00 00 00 00 00 00 00 00 00 00 00 00 00 00
00002120: 00 00 00 00 00 00 00 00 00 00 00 00 00 00 00 00
00002130: 00 00 00 00 00 00 00 00 00 00 00 00 00 00 00 00
00002140: 00 00 00 00 00 00 00 00 00 00 00 00 00 00 00 00
00002150: 00 00 00 00 00 00 00 00 00 00 00 00 00 00 00 00
00002160: 00 00 00 00 00 00 00 00 00 00 00 00 00 00 00 00
00002170: 00 00 00 00 00 00 00 00 00 00 00 00 00 00 00 00
00002180: 00 00 00 00 00 00 00 00 00 00 00 00 00 00 00 00
00002190: 00 00 00 00 00 00 00 00 00 00 00 00 00 00 00 00
000021a0: 00 00 00 00 00 00 00 00 00 00 00 00 00 00 00 00
000021b0: 00 00 00 00 00 00 00 00 00 00 00 00 00 00 00 00
000021c0: 00 00 00 00 00 00 00 00 00 00 00 00 00 00 00 00
000021d0: 00 00 00 00 00 00 00 00 00 00 00 00 00 00 00 00
000021e0: 00 00 00 00 00 00 00 00 00 00 00 00 00 00 00 00
000021f0: 00 00 00 00 00 00 00 00 00 00 00 00 00 00 00 00
00002200: 00 00 00 00 00 00 00 00 00 00 00 00 00 00 00 00
00002210: 00 00 00 00 00 00 00 00 00 00 00 00 00 00 00 00
00002220: 00 00 00 00 00 00 00 00 00 00 00 00 00 00 00 00
00002230: 00 00 00 00 00 00 00 00 00 00 00 00 00 00 00 00
00002240: 00 00 00 00 00 00 00 00 00 00 00 00 00 00 00 00
00002250: 00 00 00 00 00 00 00 00 00 00 00 00 00 00 00 00
00002260: 00 00 00 00 00 00 00 00 00 00 00 00 00 00 00 00
00002270: 00 00 00 00 00 00 00 00 00 00 00 00 00 00 00 00
00002280: 00 00 00 00 00 00 00 00 00 00 00 00 00 00 00 00
00002290: 00 00 00 00 00 00 00 00 00 00 00 00 00 00 00 00
000022a0: 00 00 00 00 00 00 00 00 00 00 00 00 00 00 00 00
000022b0: 00 00 00 00 00 00 00 00 00 00 00 00 00 00 00 00
000022c0: 00 00 00 00 00 00 00 00 00 00 00 00 00 00 00 00
000022d0: 00 00 00 00 00 00 00 00 00 00 00 00 00 00 00 00
000022e0: 00 00 00 00 00 00 00 00 00 00 00 00 00 00 00 00
000022f0: 00 00 00 00 00 00 00 00 00 00 00 00 00 00 00 00
00002300: 00 00 00 00 00 00 00 00 00 00 00 00 00 00 00 00
00002310: 00 00 00 00 00 00 00 00 00 00 00 00 00 00 00 00
00002320: 00 00 00 00 00 00 00 00 00 00 00 00 00 00 00 00
00002330: 00 00 00 00 00 00 00 00 00 00 00 00 00 00 00 00
00002340: 00 00 00 00 00 00 00 00 00 00 00 00 00 00 00 00
00002350: 00 00 00 00 00 00 00 00 00 00 00 00 00 00 00 00
00002360: 00 00 00 00 00 00 00 00 00 00 00 00 00 00 00 00
00002370: 00 00 00 00 00 00 00 00 00 00 00 00 00 00 00 00
00002380: 00 00 00 00 00 00 00 00 00 00 00 00 00 00 00 00
00002390: 00 00 00 00 00 00 00 00 00 00 00 00 00 00 00 00
000023a0: 00 00 00 00 00 00 00 00 00 00 00 00 00 00 00 00
000023b0: 00 00 00 00 00 00 00 00 00 00 00 00 00 00 00 00
000023c0: 00 00 00 00 00 00 00 00 00 00 00 00 00 00 00 00
000023d0: 00 00 00 00 00 00 00 00 00 00 00 00 00 00 00 00
000023e0: 00 00 00 00 00 00 00 00 00 00 00 00 00 00 00 00
000023f0: 00 00 00 00 00 00 00 00 00 00 00 00 00 00 00 00
00002400: 00 00 00 00 00 00 00 00 00 00 00 00 00 00 00 00
00002410: 00 00 00 00 00 00 00 00 00 00 00 00 00 00 00 00
00002420: 00 00 00 00 00 00 00 00 00 00 00 00 00 00 00 00
00002430: 00 00 00 00 00 00 00 00 00 00 00 00 00 00 00 00
00002440: 00 00 00 00 00 00 00 00 00 00 00 00 00 00 00 00
00002450: 00 00 00 00 00 00 00 00 00 00 00 00 00 00 00 00
00002460: 00 00 00 00 00 00 00 00 00 00 00 00 00 00 00 00
00002470: 00 00 00 00 00 00 00 00 00 00 00 00 00 00 00 00
00002480: 00 00 00 00 00 00 00 00 00 00 00 00 00 00 00 00
00002490: 00 00 00 00 00 00 00 00 00 00 00 00 00 00 00 00
000024a0: 00 00 00 00 00 00 00 00 00 00 00 00 00 00 00 00
000024b0: 00 00 00 00 00 00 00 00 00 00 00 00 00 00 00 00
000024c0: 00 00 00 00 00 00 00 00 00 00 00 00 00 00 00 00
000024d0: 00 00 00 00 00 00 00 00 00 00 00 00 00 00 00 00
000024e0: 00 00 00 00 00 00 00 00 00 00 00 00 00 00 00 00
000024f0: 00 00 00 00 00 00 00 00 00 00 00 00 00 00 00 00
00002500: 00 00 00 00 00 00 00 00 00 00 00 00 00 00 00 00
00002510: 00 00 00 00 00 00 00 00 00 00 00 00 00 00 00 00
00002520: 00 00 00 00 00 00 00 00 00 00 00 00 00 00 00 00
00002530: 00 00 00 00 00 00 00 00 00 00 00 00 00 00 00 00
00002540: 00 00 00 00 00 00 00 00 00 00 00 00 00 00 00 00
00002550: 00 00 00 00 00 00 00 00 00 00 00 00 00 00 00 00
00002560: 00 00 00 00 00 00 00 00 00 00 00 00 00 00 00 00
00002570: 00 00 00 00 00 00 00 00 00 00 00 00 00 00 00 00
00002580: 00 00 00 00 00 00 00 00 00 00 00 00 00 00 00 00
00002590: 00 00 00 00 00 00 00 00 00 00 00 00 00 00 00 00
000025a0: 00 00 00 00 00 00 00 00 00 00 00 00 00 00 00 00
000025b0: 00 00 00 00 00 00 00 00 00 00 00 00 00 00 00 00
000025c0: 00 00 00 00 00 00 00 00 00 00 00 00 00 00 00 00
000025d0: 00 00 00 00 00 00 00 00 00 00 00 00 00 00 00 00
000025e0: 00 00 00 00 00 00 00 00 00 00 00 00 00 00 00 00
000025f0: 00 00 00 00 00 00 00 00 00 00 00 00 00 00 00 00
00002600: 00 00 00 00 00 00 00 00 00 00 00 00 00 00 00 00
00002610: 00 00 00 00 00 00 00 00 00 00 00 00 00 00 00 00
00002620: 00 00 00 00 00 00 00 00 00 00 00 00 00 00 00 00
00002630: 00 00 00 00 00 00 00 00 00 00 00 00 00 00 00 00
00002640: 00 00 00 00 00 00 00 00 00 00 00 00 00 00 00 00
00002650: 00 00 00 00 00 00 00 00 00 00 00 00 00 00 00 00
00002660: 00 00 00 00 00 00 00 00 00 00 00 00 00 00 00 00
00002670: 00 00 00 00 00 00 00 00 00 00 00 00 00 00 00 00
00002680: 00 00 00 00 00 00 00 00 00 00 00 00 00 00 00 00
00002690: 00 00 00 00 00 00 00 00 00 00 00 00 00 00 00 00
000026a0: 00 00 00 00 00 00 00 00 00 00 00 00 00 00 00 00
000026b0: 00 00 00 00 00 00 00 00 00 00 00 00 00 00 00 00
000026c0: 00 00 00 00 00 00 00 00 00 00 00 00 00 00 00 00
000026d0: 00 00 00 00 00 00 00 00 00 00 00 00 00 00 00 00
000026e0: 00 00 00 00 00 00 00 00 00 00 00 00 00 00 00 00
000026f0: 00 00 00 00 00 00 00 00 00 00 00 00 00 00 00 00
00002700: 00 00 00 00 00 00 00 00 00 00 00 00 00 00 00 00
00002710: 00 00 00 00 00 00 00 00 00 00 00 00 00 00 00 00
00002720: 00 00 00 00 00 00 00 00 00 00 00 00 00 00 00 00
00002730: 00 00 00 00 00 00 00 00 00 00 00 00 00 00 00 00
00002740: 00 00 00 00 00 00 00 00 00 00 00 00 00 00 00 00
00002750: 00 00 00 00 00 00 00 00 00 00 00 00 00 00 00 00
00002760: 00 00 00 00 00 00 00 00 00 00 00 00 00 00 00 00
00002770: 00 00 00 00 00 00 00 00 00 00 00 00 00 00 00 00
00002780: 00 00 00 00 00 00 00 00 00 00 00 00 00 00 00 00
00002790: 00 00 00 00 00 00 00 00 00 00 00 00 00 00 00 00
000027a0: 00 00 00 00 00 00 00 00 00 00 00 00 00 00 00 00
000027b0: 00 00 00 00 00 00 00 00 00 00 00 00 00 00 00 00
000027c0: 00 00 00 00 00 00 00 00 00 00 00 00 00 00 00 00
000027d0: 00 00 00 00 00 00 00 00 00 00 00 00 00 00 00 00
000027e0: 00 00 00 00 00 00 00 00 00 00 00 00 00 00 00 00
000027f0: 00 00 00 00 00 00 00 00 00 00 00 00 00 00 00 00
00002800: 00 00 00 00 00 00 00 00 00 00 00 00 00 00 00 00
00002810: 00 00 00 00 00 00 00 00 00 00 00 00 00 00 00 00
00002820: 00 00 00 00 00 00 00 00 00 00 00 00 00 00 00 00
00002830: 00 00 00 00 00 00 00 00 00 00 00 00 00 00 00 00
00002840: 00 00 00 00 00 00 00 00 00 00 00 00 00 00 00 00
00002850: 00 00 00 00 00 00 00 00 00 00 00 00 00 00 00 00
00002860: 00 00 00 00 00 00 00 00 00 00 00 00 00 00 00 00
00002870: 00 00 00 00 00 00 00 00 00 00 00 00 00 00 00 00
00002880: 00 00 00 00 00 00 00 00 00 00 00 00 00 00 00 00
00002890: 00 00 00 00 00 00 00 00 00 00 00 00 00 00 00 00
000028a0: 00 00 00 00 00 00 00 00 00 00 00 00 00 00 00 00
000028b0: 00 00 00 00 00 00 00 00 00 00 00 00 00 00 00 00
000028c0: 00 00 00 00 00 00 00 00 00 00 00 00 00 00 00 00
000028d0: 00 00 00 00 00 00 00 00 00 00 00 00 00 00 00 00
000028e0: 00 00 00 00 00 00 00 00 00 00 00 00 00 00 00 00
000028f0: 00 00 00 00 00 00 00 00 00 00 00 00 00 00 00 00
00002900: 00 00 00 00 00 00 00 00 00 00 00 00 00 00 00 00
00002910: 00 00 00 00 00 00 00 00 00 00 00 00 00 00 00 00
00002920: 00 00 00 00 00 00 00 00 00 00 00 00 00 00 00 00
00002930: 00 00 00 00 00 00 00 00 00 00 00 00 00 00 00 00
00002940: 00 00 00 00 00 00 00 00 00 00 00 00 00 00 00 00
00002950: 00 00 00 00 00 00 00 00 00 00 00 00 00 00 00 00
00002960: 00 00 00 00 00 00 00 00 00 00 00 00 00 00 00 00
00002970: 00 00 00 00 00 00 00 00 00 00 00 00 00 00 00 00
00002980: 00 00 00 00 00 00 00 00 00 00 00 00 00 00 00 00
00002990: 00 00 00 00 00 00 00 00 00 00 00 00 00 00 00 00
000029a0: 00 00 00 00 00 00 00 00 00 00 00 00 00 00 00 00
000029b0: 00 00 00 00 00 00 00 00 00 00 00 00 00 00 00 00
000029c0: 00 00 00 00 00 00 00 00 00 00 00 00 00 00 00 00
000029d0: 00 00 00 00 00 00 00 00 00 00 00 00 00 00 00 00
000029e0: 00 00 00 00 00 00 00 00 00 00 00 00 00 00 00 00
000029f0: 00 00 00 00 00 00 00 00 00 00 00 00 00 00 00 00
00002a00: 00 00 00 00 00 00 00 00 00 00 00 00 00 00 00 00
00002a10: 00 00 00 00 00 00 00 00 00 00 00 00 00 00 00 00
00002a20: 00 00 00 00 00 00 00 00 00 00 00 00 00 00 00 00
00002a30: 00 00 00 00 00 00 00 00 00 00 00 00 00 00 00 00
00002a40: 00 00 00 00 00 00 00 00 00 00 00 00 00 00 00 00
00002a50: 00 00 00 00 00 00 00 00 00 00 00 00 00 00 00 00
00002a60: 00 00 00 00 00 00 00 00 00 00 00 00 00 00 00 00
00002a70: 00 00 00 00 00 00 00 00 00 00 00 00 00 00 00 00
00002a80: 00 00 00 00 00 00 00 00 00 00 00 00 00 00 00 00
00002a90: 00 00 00 00 00 00 00 00 00 00 00 00 00 00 00 00
00002aa0: 00 00 00 00 00 00 00 00 00 00 00 00 00 00 00 00
00002ab0: 00 00 00 00 00 00 00 00 00 00 00 00 00 00 00 00
00002ac0: 00 00 00 00 00 00 00 00 00 00 00 00 00 00 00 00
00002ad0: 00 00 00 00 00 00 00 00 00 00 00 00 00 00 00 00
00002ae0: 00 00 00 00 00 00 00 00 00 00 00 00 00 00 00 00
00002af0: 00 00 00 00 00 00 00 00 00 00 00 00 00 00 00 00
00002b00: 00 00 00 00 00 00 00 00 00 00 00 00 00 00 00 00
00002b10: 00 00 00 00 00 00 00 00 00 00 00 00 00 00 00 00
00002b20: 00 00 00 00 00 00 00 00 00 00 00 00 00 00 00 00
00002b30: 00 00 00 00 00 00 00 00 00 00 00 00 00 00 00 00
00002b40: 00 00 00 00 00 00 00 00 00 00 00 00 00 00 00 00
00002b50: 00 00 00 00 00 00 00 00 00 00 00 00 00 00 00 00
00002b60: 00 00 00 00 00 00 00 00 00 00 00 00 00 00 00 00
00002b70: 00 00 00 00 00 00 00 00 00 00 00 00 00 00 00 00
00002b80: 00 00 00 00 00 00 00 00 00 00 00 00 00 00 00 00
00002b90: 00 00 00 00 00 00 00 00 00 00 00 00 00 00 00 00
00002ba0: 00 00 00 00 00 00 00 00 00 00 00 00 00 00 00 00
00002bb0: 00 00 00 00 00 00 00 00 00 00 00 00 00 00 00 00
00002bc0: 00 00 00 00 00 00 00 00 00 00 00 00 00 00 00 00
00002bd0: 00 00 00 00 00 00 00 00 00 00 00 00 00 00 00 00
00002be0: 00 00 00 00 00 00 00 00 00 00 00 00 00 00 00 00
00002bf0: 00 00 00 00 00 00 00 00 00 00 00 00 00 00 00 00
00002c00: 00 00 00 00 00 00 00 00 00 00 00 00 00 00 00 00
00002c10: 00 00 00 00 00 00 00 00 00 00 00 00 00 00 00 00
00002c20: 00 00 00 00 00 00 00 00 00 00 00 00 00 00 00 00
00002c30: 00 00 00 00 00 00 00 00 00 00 00 00 00 00 00 00
00002c40: 00 00 00 00 00 00 00 00 00 00 00 00 00 00 00 00
00002c50: 00 00 00 00 00 00 00 00 00 00 00 00 00 00 00 00
00002c60: 00 00 00 00 00 00 00 00 00 00 00 00 00 00 00 00
00002c70: 00 00 00 00 00 00 00 00 00 00 00 00 00 00 00 00
00002c80: 00 00 00 00 00 00 00 00 00 00 00 00 00 00 00 00
00002c90: 00 00 00 00 00 00 00 00 00 00 00 00 00 00 00 00
00002ca0: 00 00 00 00 00 00 00 00 00 00 00 00 00 00 00 00
00002cb0: 00 00 00 00 00 00 00 00 00 00 00 00 00 00 00 00
00002cc0: 00 00 00 00 00 00 00 00 00 00 00 00 00 00 00 00
00002cd0: 00 00 00 00 00 00 00 00 00 00 00 00 00 00 00 00
00002ce0: 00 00 00 00 00 00 00 00 00 00 00 00 00 00 00 00
00002cf0: 00 00 00 00 00 00 00 00 00 00 00 00 00 00 00 00
00002d00: 00 00 00 00 00 00 00 00 00 00 00 00 00 00 00 00
00002d10: 00 00 00 00 00 00 00 00 00 00 00 00 00 00 00 00
00002d20: 00 00 00 00 00 00 00 00 00 00 00 00 00 00 00 00
00002d30: 00 00 00 00 00 00 00 00 00 00 00 00 00 00 00 00
00002d40: 00 00 00 00 00 00 00 00 00 00 00 00 00 00 00 00
00002d50: 00 00 00 00 00 00 00 00 00 00 00 00 00 00 00 00
00002d60: 00 00 00 00 00 00 00 00 00 00 00 00 00 00 00 00
00002d70: 00 00 00 00 00 00 00 00 00 00 00 00 00 00 00 00
00002d80: 00 00 00 00 00 00 00 00 00 00 00 00 00 00 00 00
00002d90: 00 00 00 00 00 00 00 00 00 00 00 00 00 00 00 00
00002da0: 00 00 00 00 00 00 00 00 00 00 00 00 00 00 00 00
00002db0: 00 00 00 00 00 00 00 00 00 00 00 00 00 00 00 00
00002dc0: 00 00 00 00 00 00 00 00 00 00 00 00 00 00 00 00
00002dd0: 00 00 00 00 00 00 00 00 00 00 00 00 00 00 00 00
00002de0: 00 00 00 00 00 00 00 00 00 00 00 00 00 00 00 00
00002df0: 00 00 00 00 00 00 00 00 00 00 00 00 00 00 00 00
00002e00: 00 00 00 00 00 00 00 00 00 00 00 00 00 00 00 00
00002e10: 00 00 00 00 00 00 00 00 00 00 00 00 00 00 00 00
00002e20: 00 00 00 00 00 00 00 00 00 00 00 00 00 00 00 00
00002e30: 00 00 00 00 00 00 00 00 00 00 00 00 00 00 00 00
00002e40: 00 00 00 00 00 00 00 00 00 00 00 00 00 00 00 00
00002e50: 00 00 00 00 00 00 00 00 00 00 00 00 00 00 00 00
00002e60: 00 00 00 00 00 00 00 00 00 00 00 00 00 00 00 00
00002e70: 00 00 00 00 00 00 00 00 00 00 00 00 00 00 00 00
00002e80: 00 00 00 00 00 00 00 00 00 00 00 00 00 00 00 00
00002e90: 00 00 00 00 00 00 00 00 00 00 00 00 00 00 00 00
00002ea0: 00 00 00 00 00 00 00 00 00 00 00 00 00 00 00 00
00002eb0: 00 00 00 00 00 00 00 00 00 00 00 00 00 00 00 00
00002ec0: 00 00 00 00 00 00 00 00 00 00 00 00 00 00 00 00
00002ed0: 00 00 00 00 00 00 00 00 00 00 00 00 00 00 00 00
00002ee0: 00 00 00 00 00 00 00 00 00 00 00 00 00 00 00 00
00002ef0: 00 00 00 00 00 00 00 00 00 00 00 00 00 00 00 00
00002f00: 00 00 00 00 00 00 00 00 00 00 00 00 00 00 00 00
00002f10: 00 00 00 00 00 00 00 00 00 00 00 00 00 00 00 00
00002f20: 00 00 00 00 00 00 00 00 00 00 00 00 00 00 00 00
00002f30: 00 00 00 00 00 00 00 00 00 00 00 00 00 00 00 00
00002f40: 00 00 00 00 00 00 00 00 00 00 00 00 00 00 00 00
00002f50: 00 00 00 00 00 00 00 00 00 00 00 00 00 00 00 00
00002f60: 00 00 00 00 00 00 00 00 00 00 00 00 00 00 00 00
00002f70: 00 00 00 00 00 00 00 00 00 00 00 00 00 00 00 00
00002f80: 00 00 00 00 00 00 00 00 00 00 00 00 00 00 00 00
00002f90: 00 00 00 00 00 00 00 00 00 00 00 00 00 00 00 00
00002fa0: 00 00 00 00 00 00 00 00 00 00 00 00 00 00 00 00
00002fb0: 00 00 00 00 00 00 00 00 00 00 00 00 00 00 00 00
00002fc0: 00 00 00 00 00 00 00 00 00 00 00 00 00 00 00 00
00002fd0: 00 00 00 00 00 00 00 00 00 00 00 00 00 00 00 00
00002fe0: 00 00 00 00 00 00 00 00 00 00 00 00 00 00 00 00
00002ff0: 00 00 00 00 00 00 00 00 00 00 00 00 00 00 00 00
00003000: 00 00 00 00 00 00 00 00 00 00 00 00 00 00 00 00
00003010: 00 00 00 00 00 00 00 00 00 00 00 00 00 00 00 00
00003020: 00 00 00 00 00 00 00 00 00 00 00 00 00 00 00 00
00003030: 00 00 00 00 00 00 00 00 00 00 00 00 00 00 00 00
00003040: 00 00 00 00 00 00 00 00 00 00 00 00 00 00 00 00
00003050: 00 00 00 00 00 00 00 00 00 00 00 00 00 00 00 00
00003060: 00 00 00 00 00 00 00 00 00 00 00 00 00 00 00 00
00003070: 00 00 00 00 00 00 00 00 00 00 00 00 00 00 00 00
00003080: 00 00 00 00 00 00 00 00 00 00 00 00 00 00 00 00
00003090: 00 00 00 00 00 00 00 00 00 00 00 00 00 00 00 00
000030a0: 00 00 00 00 00 00 00 00 00 00 00 00 00 00 00 00
000030b0: 00 00 00 00 00 00 00 00 00 00 00 00 00 00 00 00
000030c0: 00 00 00 00 00 00 00 00 00 00 00 00 00 00 00 00
000030d0: 00 00 00 00 00 00 00 00 00 00 00 00 00 00 00 00
000030e0: 00 00 00 00 00 00 00 00 00 00 00 00 00 00 00 00
000030f0: 00 00 00 00 00 00 00 00 00 00 00 00 00 00 00 00
00003100: 00 00 00 00 00 00 00 00 00 00 00 00 00 00 00 00
00003110: 00 00 00 00 00 00 00 00 00 00 00 00 00 00 00 00
00003120: 00 00 00 00 00 00 00 00 00 00 00 00 00 00 00 00
00003130: 00 00 00 00 00 00 00 00 00 00 00 00 00 00 00 00
00003140: 00 00 00 00 00 00 00 00 00 00 00 00 00 00 00 00
00003150: 00 00 00 00 00 00 00 00 00 00 00 00 00 00 00 00
00003160: 00 00 00 00 00 00 00 00 00 00 00 00 00 00 00 00
00003170: 00 00 00 00 00 00 00 00 00 00 00 00 00 00 00 00
00003180: 00 00 00 00 00 00 00 00 00 00 00 00 00 00 00 00
00003190: 00 00 00 00 00 00 00 00 00 00 00 00 00 00 00 00
000031a0: 00 00 00 00 00 00 00 00 00 00 00 00 00 00 00 00
000031b0: 00 00 00 00 00 00 00 00 00 00 00 00 00 00 00 00
000031c0: 00 00 00 00 00 00 00 00 00 00 00 00 00 00 00 00
000031d0: 00 00 00 00 00 00 00 00 00 00 00 00 00 00 00 00
000031e0: 00 00 00 00 00 00 00 00 00 00 00 00 00 00 00 00
000031f0: 00 00 00 00 00 00 00 00 00 00 00 00 00 00 00 00
00003200: 00 00 00 00 00 00 00 00 00 00 00 00 00 00 00 00
00003210: 00 00 00 00 00 00 00 00 00 00 00 00 00 00 00 00
00003220: 00 00 00 00 00 00 00 00 00 00 00 00 00 00 00 00
00003230: 00 00 00 00 00 00 00 00 00 00 00 00 00 00 00 00
00003240: 00 00 00 00 00 00 00 00 00 00 00 00 00 00 00 00
00003250: 00 00 00 00 00 00 00 00 00 00 00 00 00 00 00 00
00003260: 00 00 00 00 00 00 00 00 00 00 00 00 00 00 00 00
00003270: 00 00 00 00 00 00 00 00 00 00 00 00 00 00 00 00
00003280: 00 00 00 00 00 00 00 00 00 00 00 00 00 00 00 00
00003290: 00 00 00 00 00 00 00 00 00 00 00 00 00 00 00 00
000032a0: 00 00 00 00 00 00 00 00 00 00 00 00 00 00 00 00
000032b0: 00 00 00 00 00 00 00 00 00 00 00 00 00 00 00 00
000032c0: 00 00 00 00 00 00 00 00 00 00 00 00 00 00 00 00
000032d0: 00 00 00 00 00 00 00 00 00 00 00 00 00 00 00 00
000032e0: 00 00 00 00 00 00 00 00 00 00 00 00 00 00 00 00
000032f0: 00 00 00 00 00 00 00 00 00 00 00 00 00 00 00 00
00003300: 00 00 00 00 00 00 00 00 00 00 00 00 00 00 00 00
00003310: 00 00 00 00 00 00 00 00 00 00 00 00 00 00 00 00
00003320: 00 00 00 00 00 00 00 00 00 00 00 00 00 00 00 00
00003330: 00 00 00 00 00 00 00 00 00 00 00 00 00 00 00 00
00003340: 00 00 00 00 00 00 00 00 00 00 00 00 00 00 00 00
00003350: 00 00 00 00 00 00 00 00 00 00 00 00 00 00 00 00
00003360: 00 00 00 00 00 00 00 00 00 00 00 00 00 00 00 00
00003370: 00 00 00 00 00 00 00 00 00 00 00 00 00 00 00 00
00003380: 00 00 00 00 00 00 00 00 00 00 00 00 00 00 00 00
00003390: 00 00 00 00 00 00 00 00 00 00 00 00 00 00 00 00
000033a0: 00 00 00 00 00 00 00 00 00 00 00 00 00 00 00 00
000033b0: 00 00 00 00 00 00 00 00 00 00 00 00 00 00 00 00
000033c0: 00 00 00 00 00 00 00 00 00 00 00 00 00 00 00 00
000033d0: 00 00 00 00 00 00 00 00 00 00 00 00 00 00 00 00
000033e0: 00 00 00 00 00 00 00 00 00 00 00 00 00 00 00 00
000033f0: 00 00 00 00 00 00 00 00 00 00 00 00 00 00 00 00
00003400: 00 00 00 00 00 00 00 00 00 00 00 00 00 00 00 00
00003410: 00 00 00 00 00 00 00 00 00 00 00 00 00 00 00 00
00003420: 00 00 00 00 00 00 00 00 00 00 00 00 00 00 00 00
00003430: 00 00 00 00 00 00 00 00 00 00 00 00 00 00 00 00
00003440: 00 00 00 00 00 00 00 00 00 00 00 00 00 00 00 00
00003450: 00 00 00 00 00 00 00 00 00 00 00 00 00 00 00 00
00003460: 00 00 00 00 00 00 00 00 00 00 00 00 00 00 00 00
00003470: 00 00 00 00 00 00 00 00 00 00 00 00 00 00 00 00
00003480: 00 00 00 00 00 00 00 00 00 00 00 00 00 00 00 00
00003490: 00 00 00 00 00 00 00 00 00 00 00 00 00 00 00 00
000034a0: 00 00 00 00 00 00 00 00 00 00 00 00 00 00 00 00
000034b0: 00 00 00 00 00 00 00 00 00 00 00 00 00 00 00 00
000034c0: 00 00 00 00 00 00 00 00 00 00 00 00 00 00 00 00
000034d0: 00 00 00 00 00 00 00 00 00 00 00 00 00 00 00 00
000034e0: 00 00 00 00 00 00 00 00 00 00 00 00 00 00 00 00
000034f0: 00 00 00 00 00 00 00 00 00 00 00 00 00 00 00 00
00003500: 00 00 00 00 00 00 00 00 00 00 00 00 00 00 00 00
00003510: 00 00 00 00 00 00 00 00 00 00 00 00 00 00 00 00
00003520: 00 00 00 00 00 00 00 00 00 00 00 00 00 00 00 00
00003530: 00 00 00 00 00 00 00 00 00 00 00 00 00 00 00 00
00003540: 00 00 00 00 00 00 00 00 00 00 00 00 00 00 00 00
00003550: 00 00 00 00 00 00 00 00 00 00 00 00 00 00 00 00
00003560: 00 00 00 00 00 00 00 00 00 00 00 00 00 00 00 00
00003570: 00 00 00 00 00 00 00 00 00 00 00 00 00 00 00 00
00003580: 00 00 00 00 00 00 00 00 00 00 00 00 00 00 00 00
00003590: 00 00 00 00 00 00 00 00 00 00 00 00 00 00 00 00
000035a0: 00 00 00 00 00 00 00 00 00 00 00 00 00 00 00 00
000035b0: 00 00 00 00 00 00 00 00 00 00 00 00 00 00 00 00
000035c0: 00 00 00 00 00 00 00 00 00 00 00 00 00 00 00 00
000035d0: 00 00 00 00 00 00 00 00 00 00 00 00 00 00 00 00
000035e0: 00 00 00 00 00 00 00 00 00 00 00 00 00 00 00 00
000035f0: 00 00 00 00 00 00 00 00 00 00 00 00 00 00 00 00
00003600: 00 00 00 00 00 00 00 00 00 00 00 00 00 00 00 00
00003610: 00 00 00 00 00 00 00 00 00 00 00 00 00 00 00 00
00003620: 00 00 00 00 00 00 00 00 00 00 00 00 00 00 00 00
00003630: 00 00 00 00 00 00 00 00 00 00 00 00 00 00 00 00
00003640: 00 00 00 00 00 00 00 00 00 00 00 00 00 00 00 00
00003650: 00 00 00 00 00 00 00 00 00 00 00 00 00 00 00 00
00003660: 00 00 00 00 00 00 00 00 00 00 00 00 00 00 00 00
00003670: 00 00 00 00 00 00 00 00 00 00 00 00 00 00 00 00
00003680: 00 00 00 00 00 00 00 00 00 00 00 00 00 00 00 00
00003690: 00 00 00 00 00 00 00 00 00 00 00 00 00 00 00 00
000036a0: 00 00 00 00 00 00 00 00 00 00 00 00 00 00 00 00
000036b0: 00 00 00 00 00 00 00 00 00 00 00 00 00 00 00 00
000036c0: 00 00 00 00 00 00 00 00 00 00 00 00 00 00 00 00
000036d0: 00 00 00 00 00 00 00 00 00 00 00 00 00 00 00 00
000036e0: 00 00 00 00 00 00 00 00 00 00 00 00 00 00 00 00
000036f0: 00 00 00 00 00 00 00 00 00 00 00 00 00 00 00 00
00003700: 00 00 00 00 00 00 00 00 00 00 00 00 00 00 00 00
00003710: 00 00 00 00 00 00 00 00 00 00 00 00 00 00 00 00
00003720: 00 00 00 00 00 00 00 00 00 00 00 00 00 00 00 00
00003730: 00 00 00 00 00 00 00 00 00 00 00 00 00 00 00 00
00003740: 00 00 00 00 00 00 00 00 00 00 00 00 00 00 00 00
00003750: 00 00 00 00 00 00 00 00 00 00 00 00 00 00 00 00
00003760: 00 00 00 00 00 00 00 00 00 00 00 00 00 00 00 00
00003770: 00 00 00 00 00 00 00 00 00 00 00 00 00 00 00 00
00003780: 00 00 00 00 00 00 00 00 00 00 00 00 00 00 00 00
00003790: 00 00 00 00 00 00 00 00 00 00 00 00 00 00 00 00
000037a0: 00 00 00 00 00 00 00 00 00 00 00 00 00 00 00 00
000037b0: 00 00 00 00 00 00 00 00 00 00 00 00 00 00 00 00
000037c0: 00 00 00 00 00 00 00 00 00 00 00 00 00 00 00 00
000037d0: 00 00 00 00 00 00 00 00 00 00 00 00 00 00 00 00
000037e0: 00 00 00 00 00 00 00 00 00 00 00 00 00 00 00 00
000037f0: 00 00 00 00 00 00 00 00 00 00 00 00 00 00 00 00
00003800: 00 00 00 00 00 00 00 00 00 00 00 00 00 00 00 00
00003810: 00 00 00 00 00 00 00 00 00 00 00 00 00 00 00 00
00003820: 00 00 00 00 00 00 00 00 00 00 00 00 00 00 00 00
00003830: 00 00 00 00 00 00 00 00 00 00 00 00 00 00 00 00
00003840: 00 00 00 00 00 00 00 00 00 00 00 00 00 00 00 00
00003850: 00 00 00 00 00 00 00 00 00 00 00 00 00 00 00 00
00003860: 00 00 00 00 00 00 00 00 00 00 00 00 00 00 00 00
00003870: 00 00 00 00 00 00 00 00 00 00 00 00 00 00 00 00
00003880: 00 00 00 00 00 00 00 00 00 00 00 00 00 00 00 00
00003890: 00 00 00 00 00 00 00 00 00 00 00 00 00 00 00 00
000038a0: 00 00 00 00 00 00 00 00 00 00 00 00 00 00 00 00
000038b0: 00 00 00 00 00 00 00 00 00 00 00 00 00 00 00 00
000038c0: 00 00 00 00 00 00 00 00 00 00 00 00 00 00 00 00
000038d0: 00 00 00 00 00 00 00 00 00 00 00 00 00 00 00 00
000038e0: 00 00 00 00 00 00 00 00 00 00 00 00 00 00 00 00
000038f0: 00 00 00 00 00 00 00 00 00 00 00 00 00 00 00 00
00003900: 00 00 00 00 00 00 00 00 00 00 00 00 00 00 00 00
00003910: 00 00 00 00 00 00 00 00 00 00 00 00 00 00 00 00
00003920: 00 00 00 00 00 00 00 00 00 00 00 00 00 00 00 00
00003930: 00 00 00 00 00 00 00 00 00 00 00 00 00 00 00 00
00003940: 00 00 00 00 00 00 00 00 00 00 00 00 00 00 00 00
00003950: 00 00 00 00 00 00 00 00 00 00 00 00 00 00 00 00
00003960: 00 00 00 00 00 00 00 00 00 00 00 00 00 00 00 00
00003970: 00 00 00 00 00 00 00 00 00 00 00 00 00 00 00 00
00003980: 00 00 00 00 00 00 00 00 00 00 00 00 00 00 00 00
00003990: 00 00 00 00 00 00 00 00 00 00 00 00 00 00 00 00
000039a0: 00 00 00 00 00 00 00 00 00 00 00 00 00 00 00 00
000039b0: 00 00 00 00 00 00 00 00 00 00 00 00 00 00 00 00
000039c0: 00 00 00 00 00 00 00 00 00 00 00 00 00 00 00 00
000039d0: 00 00 00 00 00 00 00 00 00 00 00 00 00 00 00 00
000039e0: 00 00 00 00 00 00 00 00 00 00 00 00 00 00 00 00
000039f0: 00 00 00 00 00 00 00 00 00 00 00 00 00 00 00 00
00003a00: 00 00 00 00 00 00 00 00 00 00 00 00 00 00 00 00
00003a10: 00 00 00 00 00 00 00 00 00 00 00 00 00 00 00 00
00003a20: 00 00 00 00 00 00 00 00 00 00 00 00 00 00 00 00
00003a30: 00 00 00 00 00 00 00 00 00 00 00 00 00 00 00 00
00003a40: 00 00 00 00 00 00 00 00 00 00 00 00 00 00 00 00
00003a50: 00 00 00 00 00 00 00 00 00 00 00 00 00 00 00 00
00003a60: 00 00 00 00 00 00 00 00 00 00 00 00 00 00 00 00
00003a70: 00 00 00 00 00 00 00 00 00 00 00 00 00 00 00 00
00003a80: 00 00 00 00 00 00 00 00 00 00 00 00 00 00 00 00
00003a90: 00 00 00 00 00 00 00 00 00 00 00 00 00 00 00 00
00003aa0: 00 00 00 00 00 00 00 00 00 00 00 00 00 00 00 00
00003ab0: 00 00 00 00 00 00 00 00 00 00 00 00 00 00 00 00
00003ac0: 00 00 00 00 00 00 00 00 00 00 00 00 00 00 00 00
00003ad0: 00 00 00 00 00 00 00 00 00 00 00 00 00 00 00 00
00003ae0: 00 00 00 00 00 00 00 00 00 00 00 00 00 00 00 00
00003af0: 00 00 00 00 00 00 00 00 00 00 00 00 00 00 00 00
00003b00: 00 00 00 00 00 00 00 00 00 00 00 00 00 00 00 00
00003b10: 00 00 00 00 00 00 00 00 00 00 00 00 00 00 00 00
00003b20: 00 00 00 00 00 00 00 00 00 00 00 00 00 00 00 00
00003b30: 00 00 00 00 00 00 00 00 00 00 00 00 00 00 00 00
00003b40: 00 00 00 00 00 00 00 00 00 00 00 00 00 00 00 00
00003b50: 00 00 00 00 00 00 00 00 00 00 00 00 00 00 00 00
00003b60: 00 00 00 00 00 00 00 00 00 00 00 00 00 00 00 00
00003b70: 00 00 00 00 00 00 00 00 00 00 00 00 00 00 00 00
00003b80: 00 00 00 00 00 00 00 00 00 00 00 00 00 00 00 00
00003b90: 00 00 00 00 00 00 00 00 00 00 00 00 00 00 00 00
00003ba0: 00 00 00 00 00 00 00 00 00 00 00 00 00 00 00 00
00003bb0: 00 00 00 00 00 00 00 00 00 00 00 00 00 00 00 00
00003bc0: 00 00 00 00 00 00 00 00 00 00 00 00 00 00 00 00
00003bd0: 00 00 00 00 00 00 00 00 00 00 00 00 00 00 00 00
00003be0: 00 00 00 00 00 00 00 00 00 00 00 00 00 00 00 00
00003bf0: 00 00 00 00 00 00 00 00 00 00 00 00 00 00 00 00
00003c00: 00 00 00 00 00 00 00 00 00 00 00 00 00 00 00 00
00003c10: 00 00 00 00 00 00 00 00 00 00 00 00 00 00 00 00
00003c20: 00 00 00 00 00 00 00 00 00 00 00 00 00 00 00 00
00003c30: 00 00 00 00 00 00 00 00 00 00 00 00 00 00 00 00
00003c40: 00 00 00 00 00 00 00 00 00 00 00 00 00 00 00 00
00003c50: 00 00 00 00 00 00 00 00 00 00 00 00 00 00 00 00
00003c60: 00 00 00 00 00 00 00 00 00 00 00 00 00 00 00 00
00003c70: 00 00 00 00 00 00 00 00 00 00 00 00 00 00 00 00
00003c80: 00 00 00 00 00 00 00 00 00 00 00 00 00 00 00 00
00003c90: 00 00 00 00 00 00 00 00 00 00 00 00 00 00 00 00
00003ca0: 00 00 00 00 00 00 00 00 00 00 00 00 00 00 00 00
00003cb0: 00 00 00 00 00 00 00 00 00 00 00 00 00 00 00 00
00003cc0: 00 00 00 00 00 00 00 00 00 00 00 00 00 00 00 00
00003cd0: 00 00 00 00 00 00 00 00 00 00 00 00 00 00 00 00
00003ce0: 00 00 00 00 00 00 00 00 00 00 00 00 00 00 00 00
00003cf0: 00 00 00 00 00 00 00 00 00 00 00 00 00 00 00 00
00003d00: 00 00 00 00 00 00 00 00 00 00 00 00 00 00 00 00
00003d10: 00 00 00 00 00 00 00 00 00 00 00 00 00 00 00 00
00003d20: 00 00 00 00 00 00 00 00 00 00 00 00 00 00 00 00
00003d30: 00 00 00 00 00 00 00 00 00 00 00 00 00 00 00 00
00003d40: 00 00 00 00 00 00 00 00 00 00 00 00 00 00 00 00
00003d50: 00 00 00 00 00 00 00 00 00 00 00 00 00 00 00 00
00003d60: 00 00 00 00 00 00 00 00 00 00 00 00 00 00 00 00
00003d70: 00 00 00 00 00 00 00 00 00 00 00 00 00 00 00 00
00003d80: 00 00 00 00 00 00 00 00 00 00 00 00 00 00 00 00
00003d90: 00 00 00 00 00 00 00 00 00 00 00 00 00 00 00 00
00003da0: 00 00 00 00 00 00 00 00 00 00 00 00 00 00 00 00
00003db0: 00 00 00 00 00 00 00 00 00 00 00 00 00 00 00 00
00003dc0: 00 00 00 00 00 00 00 00 00 00 00 00 00 00 00 00
00003dd0: 00 00 00 00 00 00 00 00 00 00 00 00 00 00 00 00
00003de0: 00 00 00 00 00 00 00 00 00 00 00 00 00 00 00 00
00003df0: 00 00 00 00 00 00 00 00 00 00 00 00 00 00 00 00
00003e00: 00 00 00 00 00 00 00 00 00 00 00 00 00 00 00 00
00003e10: 00 00 00 00 00 00 00 00 00 00 00 00 00 00 00 00
00003e20: 00 00 00 00 00 00 00 00 00 00 00 00 00 00 00 00
00003e30: 00 00 00 00 00 00 00 00 00 00 00 00 00 00 00 00
00003e40: 00 00 00 00 00 00 00 00 00 00 00 00 00 00 00 00
00003e50: 00 00 00 00 00 00 00 00 00 00 00 00 00 00 00 00
00003e60: 00 00 00 00 00 00 00 00 00 00 00 00 00 00 00 00
00003e70: 00 00 00 00 00 00 00 00 00 00 00 00 00 00 00 00
00003e80: 00 00 00 00 00 00 00 00 00 00 00 00 00 00 00 00
00003e90: 00 00 00 00 00 00 00 00 00 00 00 00 00 00 00 00
00003ea0: 00 00 00 00 00 00 00 00 00 00 00 00 00 00 00 00
00003eb0: 00 00 00 00 00 00 00 00 00 00 00 00 00 00 00 00
00003ec0: 00 00 00 00 00 00 00 00 00 00 00 00 00 00 00 00
00003ed0: 00 00 00 00 00 00 00 00 00 00 00 00 00 00 00 00
00003ee0: 00 00 00 00 00 00 00 00 00 00 00 00 00 00 00 00
00003ef0: 00 00 00 00 00 00 00 00 00 00 00 00 00 00 00 00
00003f00: 00 00 00 00 00 00 00 00 00 00 00 00 00 00 00 00
00003f10: 00 00 00 00 00 00 00 00 00 00 00 00 00 00 00 00
00003f20: 00 00 00 00 00 00 00 00 00 00 00 00 00 00 00 00
00003f30: 00 00 00 00 00 00 00 00 00 00 00 00 00 00 00 00
00003f40: 00 00 00 00 00 00 00 00 00 00 00 00 00 00 00 00
00003f50: 00 00 00 00 00 00 00 00 00 00 00 00 00 00 00 00
00003f60: 00 00 00 00 00 00 00 00 00 00 00 00 00 00 00 00
00003f70: 00 00 00 00 00 00 00 00 00 00 00 00 00 00 00 00
00003f80: 00 00 00 00 00 00 00 00 00 00 00 00 00 00 00 00
00003f90: 00 00 00 00 00 00 00 00 00 00 00 00 00 00 00 00
00003fa0: 00 00 00 00 00 00 00 00 00 00 00 00 00 00 00 00
00003fb0: 00 00 00 00 00 00 00 00 00 00 00 00 00 00 00 00
00003fc0: 00 00 00 00 00 00 00 00 00 00 00 00 00 00 00 00
00003fd0: 00 00 00 00 00 00 00 00 00 00 00 00 00 00 00 00
00003fe0: 00 00 00 00 00 00 00 00 00 00 00 00 00 00 00 00
00003ff0: 00 00 00 00 00 00 00 00 00 00 00 00 00 00 00 00
00004000: 00 00 00 00 00 00 00 00 00 00 00 00 00 00 00 00
00004010: 00 00 00 00 00 00 00 00 00 00 00 00 00 00 00 00
00004020: 00 00 00 00 00 00 00 00 00 00 00 00 00 00 00 00
00004030: 00 00 00 00 00 00 00 00 00 00 00 00 00 00 00 00
00004040: 00 00 00 00 00 00 00 00 00 00 00 00 00 00 00 00
00004050: 00 00 00 00 00 00 00 00 00 00 00 00 00 00 00 00
00004060: 00 00 00 00 00 00 00 00 00 00 00 00 00 00 00 00
00004070: 00 00 00 00 00 00 00 00 00 00 00 00 00 00 00 00
00004080: 00 00 00 00 00 00 00 00 00 00 00 00 00 00 00 00
00004090: 00 00 00 00 00 00 00 00 00 00 00 00 00 00 00 00

# PRGIO (count=4096)
000040a0: 00 14 00 02 00 00 00 00 00 00 00 00 00 00 00 00
000040b0: 00 00 00 00 00 00 00 00 00 00 00 00 00 00 00 00
000040c0: 00 00 00 00 00 00 00 00 00 00 00 00 00 00 00 00
000040d0: 00 00 00 00 00 00 00 00 00 00 00 00 00 00 00 00
000040e0: 00 00 00 00 00 00 00 00 00 00 00 00 00 00 00 00
000040f0: 00 00 00 00 00 00 00 00 00 00 00 00 00 00 00 00
00004100: 00 00 00 00 00 00 00 00 00 00 00 00 00 00 00 00
00004110: 00 00 00 00 00 00 00 00 00 00 00 00 00 00 00 00
00004120: 00 00 00 00 00 00 00 00 00 00 00 00 00 00 00 00
00004130: 00 00 00 00 00 00 00 00 00 00 00 00 00 00 00 00
00004140: 00 00 00 00 00 00 00 00 00 00 00 00 00 00 00 00
00004150: 00 00 00 00 00 00 00 00 00 00 00 00 00 00 00 00
00004160: 00 00 00 00 00 00 00 00 00 00 00 00 00 00 00 00
00004170: 00 00 00 00 00 00 00 00 00 00 00 00 00 00 00 00
00004180: 00 00 00 00 00 00 00 00 00 00 00 00 00 00 00 00
00004190: 00 00 00 00 00 00 00 00 00 00 00 00 00 00 00 00
000041a0: 00 14 00 02 00 00 00 00 00 00 00 00 00 00 00 00
000041b0: 00 00 00 00 00 00 00 00 00 00 00 00 00 00 00 00
000041c0: 00 00 00 00 00 00 00 00 00 00 00 00 00 00 00 00
000041d0: 00 00 00 00 00 00 00 00 00 00 00 00 00 00 00 00
000041e0: 00 00 00 00 00 00 00 00 00 00 00 00 00 00 00 00
000041f0: 00 00 00 00 00 00 00 00 00 00 00 00 00 00 00 00
00004200: 00 00 00 00 00 00 00 00 00 00 00 00 00 00 00 00
00004210: 00 00 00 00 00 00 00 00 00 00 00 00 00 00 00 00
00004220: 00 00 00 00 00 00 00 00 00 00 00 00 00 00 00 00
00004230: 00 00 00 00 00 00 00 00 00 00 00 00 00 00 00 00
00004240: 00 00 00 00 00 00 00 00 00 00 00 00 00 00 00 00
00004250: 00 00 00 00 00 00 00 00 00 00 00 00 00 00 00 00
00004260: 00 00 00 00 00 00 00 00 00 00 00 00 00 00 00 00
00004270: 00 00 00 00 00 00 00 00 00 00 00 00 00 00 00 00
00004280: 00 00 00 00 00 00 00 00 00 00 00 00 00 00 00 00
00004290: 00 00 00 00 00 00 00 00 00 00 00 00 00 00 00 00
000042a0: 00 00 00 00 00 00 00 00 00 00 00 00 00 00 00 00
000042b0: 00 00 00 00 00 00 00 00 00 00 00 00 00 00 00 00
000042c0: 00 00 00 00 00 00 00 00 00 00 00 00 00 00 00 00
000042d0: 00 00 00 00 00 00 00 00 00 00 00 00 00 00 00 00
000042e0: 00 00 00 00 00 00 00 00 00 00 00 00 00 00 00 00
000042f0: 00 00 00 00 00 00 00 00 00 00 00 00 00 00 00 00
00004300: 00 00 00 00 00 00 00 00 00 00 00 00 00 00 00 00
00004310: 00 00 00 00 00 00 00 00 00 00 00 00 00 00 00 00
00004320: 00 00 00 00 00 00 00 00 00 00 00 00 00 00 00 00
00004330: 00 00 00 00 00 00 00 00 00 00 00 00 00 00 00 00
00004340: 00 00 00 00 00 00 00 00 00 00 00 00 00 00 00 00
00004350: 00 00 00 00 00 00 00 00 00 00 00 00 00 00 00 00
00004360: 00 00 00 00 00 00 00 00 00 00 00 00 00 00 00 00
00004370: 00 00 00 00 00 00 00 00 00 00 00 00 00 00 00 00
00004380: 00 00 00 00 00 00 00 00 00 00 00 00 00 00 00 00
00004390: 00 00 00 00 00 00 00 00 00 00 00 00 00 00 00 00
000043a0: 00 00 00 00 00 00 00 00 00 00 00 00 00 00 00 00
000043b0: 00 00 00 00 00 00 00 00 00 00 00 00 00 00 00 00
000043c0: 00 00 00 00 00 00 00 00 00 00 00 00 00 00 00 00
000043d0: 00 00 00 00 00 00 00 00 00 00 00 00 00 00 00 00
000043e0: 00 00 00 00 00 00 00 00 00 00 00 00 00 00 00 00
000043f0: 00 00 00 00 00 00 00 00 00 00 00 00 00 00 00 00
00004400: 00 00 00 00 00 00 00 00 00 00 00 00 00 00 00 00
00004410: 00 00 00 00 00 00 00 00 00 00 00 00 00 00 00 00
00004420: 00 00 00 00 00 00 00 00 00 00 00 00 00 00 00 00
00004430: 00 00 00 00 00 00 00 00 00 00 00 00 00 00 00 00
00004440: 00 00 00 00 00 00 00 00 00 00 00 00 00 00 00 00
00004450: 00 00 00 00 00 00 00 00 00 00 00 00 00 00 00 00
00004460: 00 00 00 00 00 00 00 00 00 00 00 00 00 00 00 00
00004470: 00 00 00 00 00 00 00 00 00 00 00 00 00 00 00 00
00004480: 00 00 00 00 00 00 00 00 00 00 00 00 00 00 00 00
00004490: 00 00 00 00 00 00 00 00 00 00 00 00 00 00 00 00
000044a0: 00 00 00 00 00 00 00 00 00 00 00 00 00 00 00 00
000044b0: 00 00 00 00 00 00 00 00 00 00 00 00 00 00 00 00
000044c0: 00 00 00 00 00 00 00 00 00 00 00 00 00 00 00 00
000044d0: 00 00 00 00 00 00 00 00 00 00 00 00 00 00 00 00
000044e0: 00 00 00 00 00 00 00 00 00 00 00 00 00 00 00 00
000044f0: 00 00 00 00 00 00 00 00 00 00 00 00 00 00 00 00
00004500: 00 00 00 00 00 00 00 00 00 00 00 00 00 00 00 00
00004510: 00 00 00 00 00 00 00 00 00 00 00 00 00 00 00 00
00004520: 00 00 00 00 00 00 00 00 00 00 00 00 00 00 00 00
00004530: 00 00 00 00 00 00 00 00 00 00 00 00 00 00 00 00
00004540: 00 00 00 00 00 00 00 00 00 00 00 00 00 00 00 00
00004550: 00 00 00 00 00 00 00 00 00 00 00 00 00 00 00 00
00004560: 00 00 00 00 00 00 00 00 00 00 00 00 00 00 00 00
00004570: 00 00 00 00 00 00 00 00 00 00 00 00 00 00 00 00
00004580: 00 00 00 00 00 00 00 00 00 00 00 00 00 00 00 00
00004590: 00 00 00 00 00 00 00 00 00 00 00 00 00 00 00 00
000045a0: 00 00 00 00 00 00 00 00 00 00 00 00 00 00 00 00
000045b0: 00 00 00 00 00 00 00 00 00 00 00 00 00 00 00 00
000045c0: 00 00 00 00 00 00 00 00 00 00 00 00 00 00 00 00
000045d0: 00 00 00 00 00 00 00 00 00 00 00 00 00 00 00 00
000045e0: 00 00 00 00 00 00 00 00 00 00 00 00 00 00 00 00
000045f0: 00 00 00 00 00 00 00 00 00 00 00 00 00 00 00 00
00004600: 00 00 00 00 00 00 00 00 00 00 00 00 00 00 00 00
00004610: 00 00 00 00 00 00 00 00 00 00 00 00 00 00 00 00
00004620: 00 00 00 00 00 00 00 00 00 00 00 00 00 00 00 00
00004630: 00 00 00 00 00 00 00 00 00 00 00 00 00 00 00 00
00004640: 00 00 00 00 00 00 00 00 00 00 00 00 00 00 00 00
00004650: 00 00 00 00 00 00 00 00 00 00 00 00 00 00 00 00
00004660: 00 00 00 00 00 00 00 00 00 00 00 00 00 00 00 00
00004670: 00 00 00 00 00 00 00 00 00 00 00 00 00 00 00 00
00004680: 00 00 00 00 00 00 00 00 00 00 00 00 00 00 00 00
00004690: 00 00 00 00 00 00 00 00 00 00 00 00 00 00 00 00
000046a0: 00 00 00 00 00 00 00 00 00 00 00 00 00 00 00 00
000046b0: 00 00 00 00 00 00 00 00 00 00 00 00 00 00 00 00
000046c0: 00 00 00 00 00 00 00 00 00 00 00 00 00 00 00 00
000046d0: 00 00 00 00 00 00 00 00 00 00 00 00 00 00 00 00
000046e0: 00 00 00 00 00 00 00 00 00 00 00 00 00 00 00 00
000046f0: 00 00 00 00 00 00 00 00 00 00 00 00 00 00 00 00
00004700: 00 00 00 00 00 00 00 00 00 00 00 00 00 00 00 00
00004710: 00 00 00 00 00 00 00 00 00 00 00 00 00 00 00 00
00004720: 00 00 00 00 00 00 00 00 00 00 00 00 00 00 00 00
00004730: 00 00 00 00 00 00 00 00 00 00 00 00 00 00 00 00
00004740: 00 00 00 00 00 00 00 00 00 00 00 00 00 00 00 00
00004750: 00 00 00 00 00 00 00 00 00 00 00 00 00 00 00 00
00004760: 00 00 00 00 00 00 00 00 00 00 00 00 00 00 00 00
00004770: 00 00 00 00 00 00 00 00 00 00 00 00 00 00 00 00
00004780: 00 00 00 00 00 00 00 00 00 00 00 00 00 00 00 00
00004790: 00 00 00 00 00 00 00 00 00 00 00 00 00 00 00 00
000047a0: 00 00 00 00 00 00 00 00 00 00 00 00 00 00 00 00
000047b0: 00 00 00 00 00 00 00 00 00 00 00 00 00 00 00 00
000047c0: 00 00 00 00 00 00 00 00 00 00 00 00 00 00 00 00
000047d0: 00 00 00 00 00 00 00 00 00 00 00 00 00 00 00 00
000047e0: 00 00 00 00 00 00 00 00 00 00 00 00 00 00 00 00
000047f0: 00 00 00 00 00 00 00 00 00 00 00 00 00 00 00 00
00004800: 00 00 00 00 00 00 00 00 00 00 00 00 00 00 00 00
00004810: 00 00 00 00 00 00 00 00 00 00 00 00 00 00 00 00
00004820: 00 00 00 00 00 00 00 00 00 00 00 00 00 00 00 00
00004830: 00 00 00 00 00 00 00 00 00 00 00 00 00 00 00 00
00004840: 00 00 00 00 00 00 00 00 00 00 00 00 00 00 00 00
00004850: 00 00 00 00 00 00 00 00 00 00 00 00 00 00 00 00
00004860: 00 00 00 00 00 00 00 00 00 00 00 00 00 00 00 00
00004870: 00 00 00 00 00 00 00 00 00 00 00 00 00 00 00 00
00004880: 00 00 00 00 00 00 00 00 00 00 00 00 00 00 00 00
00004890: 00 00 00 00 00 00 00 00 00 00 00 00 00 00 00 00
000048a0: 00 00 00 00 00 00 00 00 00 00 00 00 00 00 00 00
000048b0: 00 00 00 00 00 00 00 00 00 00 00 00 00 00 00 00
000048c0: 00 00 00 00 00 00 00 00 00 00 00 00 00 00 00 00
000048d0: 00 00 00 00 00 00 00 00 00 00 00 00 00 00 00 00
000048e0: 00 00 00 00 00 00 00 00 00 00 00 00 00 00 00 00
000048f0: 00 00 00 00 00 00 00 00 00 00 00 00 00 00 00 00
00004900: 00 00 00 00 00 00 00 00 00 00 00 00 00 00 00 00
00004910: 00 00 00 00 00 00 00 00 00 00 00 00 00 00 00 00
00004920: 00 00 00 00 00 00 00 00 00 00 00 00 00 00 00 00
00004930: 00 00 00 00 00 00 00 00 00 00 00 00 00 00 00 00
00004940: 00 00 00 00 00 00 00 00 00 00 00 00 00 00 00 00
00004950: 00 00 00 00 00 00 00 00 00 00 00 00 00 00 00 00
00004960: 00 00 00 00 00 00 00 00 00 00 00 00 00 00 00 00
00004970: 00 00 00 00 00 00 00 00 00 00 00 00 00 00 00 00
00004980: 00 00 00 00 00 00 00 00 00 00 00 00 00 00 00 00
00004990: 00 00 00 00 00 00 00 00 00 00 00 00 00 00 00 00
000049a0: 00 00 00 00 00 00 00 00 00 00 00 00 00 00 00 00
000049b0: 00 00 00 00 00 00 00 00 00 00 00 00 00 00 00 00
000049c0: 00 00 00 00 00 00 00 00 00 00 00 00 00 00 00 00
000049d0: 00 00 00 00 00 00 00 00 00 00 00 00 00 00 00 00
000049e0: 00 00 00 00 00 00 00 00 00 00 00 00 00 00 00 00
000049f0: 00 00 00 00 00 00 00 00 00 00 00 00 00 00 00 00
00004a00: 00 00 00 00 00 00 00 00 00 00 00 00 00 00 00 00
00004a10: 00 00 00 00 00 00 00 00 00 00 00 00 00 00 00 00
00004a20: 00 00 00 00 00 00 00 00 00 00 00 00 00 00 00 00
00004a30: 00 00 00 00 00 00 00 00 00 00 00 00 00 00 00 00
00004a40: 00 00 00 00 00 00 00 00 00 00 00 00 00 00 00 00
00004a50: 00 00 00 00 00 00 00 00 00 00 00 00 00 00 00 00
00004a60: 00 00 00 00 00 00 00 00 00 00 00 00 00 00 00 00
00004a70: 00 00 00 00 00 00 00 00 00 00 00 00 00 00 00 00
00004a80: 00 00 00 00 00 00 00 00 00 00 00 00 00 00 00 00
00004a90: 00 00 00 00 00 00 00 00 00 00 00 00 00 00 00 00
00004aa0: 00 00 00 00 00 00 00 00 00 00 00 00 00 00 00 00
00004ab0: 00 00 00 00 00 00 00 00 00 00 00 00 00 00 00 00
00004ac0: 00 00 00 00 00 00 00 00 00 00 00 00 00 00 00 00
00004ad0: 00 00 00 00 00 00 00 00 00 00 00 00 00 00 00 00
00004ae0: 00 00 00 00 00 00 00 00 00 00 00 00 00 00 00 00
00004af0: 00 00 00 00 00 00 00 00 00 00 00 00 00 00 00 00
00004b00: 00 00 00 00 00 00 00 00 00 00 00 00 00 00 00 00
00004b10: 00 00 00 00 00 00 00 00 00 00 00 00 00 00 00 00
00004b20: 00 00 00 00 00 00 00 00 00 00 00 00 00 00 00 00
00004b30: 00 00 00 00 00 00 00 00 00 00 00 00 00 00 00 00
00004b40: 00 00 00 00 00 00 00 00 00 00 00 00 00 00 00 00
00004b50: 00 00 00 00 00 00 00 00 00 00 00 00 00 00 00 00
00004b60: 00 00 00 00 00 00 00 00 00 00 00 00 00 00 00 00
00004b70: 00 00 00 00 00 00 00 00 00 00 00 00 00 00 00 00
00004b80: 00 00 00 00 00 00 00 00 00 00 00 00 00 00 00 00
00004b90: 00 00 00 00 00 00 00 00 00 00 00 00 00 00 00 00
00004ba0: 00 00 00 00 00 00 00 00 00 00 00 00 00 00 00 00
00004bb0: 00 00 00 00 00 00 00 00 00 00 00 00 00 00 00 00
00004bc0: 00 00 00 00 00 00 00 00 00 00 00 00 00 00 00 00
00004bd0: 00 00 00 00 00 00 00 00 00 00 00 00 00 00 00 00
00004be0: 00 00 00 00 00 00 00 00 00 00 00 00 00 00 00 00
00004bf0: 00 00 00 00 00 00 00 00 00 00 00 00 00 00 00 00
00004c00: 00 00 00 00 00 00 00 00 00 00 00 00 00 00 00 00
00004c10: 00 00 00 00 00 00 00 00 00 00 00 00 00 00 00 00
00004c20: 00 00 00 00 00 00 00 00 00 00 00 00 00 00 00 00
00004c30: 00 00 00 00 00 00 00 00 00 00 00 00 00 00 00 00
00004c40: 00 00 00 00 00 00 00 00 00 00 00 00 00 00 00 00
00004c50: 00 00 00 00 00 00 00 00 00 00 00 00 00 00 00 00
00004c60: 00 00 00 00 00 00 00 00 00 00 00 00 00 00 00 00
00004c70: 00 00 00 00 00 00 00 00 00 00 00 00 00 00 00 00
00004c80: 00 00 00 00 00 00 00 00 00 00 00 00 00 00 00 00
00004c90: 00 00 00 00 00 00 00 00 00 00 00 00 00 00 00 00
00004ca0: 00 00 00 00 00 00 00 00 00 00 00 00 00 00 00 00
00004cb0: 00 00 00 00 00 00 00 00 00 00 00 00 00 00 00 00
00004cc0: 00 00 00 00 00 00 00 00 00 00 00 00 00 00 00 00
00004cd0: 00 00 00 00 00 00 00 00 00 00 00 00 00 00 00 00
00004ce0: 00 00 00 00 00 00 00 00 00 00 00 00 00 00 00 00
00004cf0: 00 00 00 00 00 00 00 00 00 00 00 00 00 00 00 00
00004d00: 00 00 00 00 00 00 00 00 00 00 00 00 00 00 00 00
00004d10: 00 00 00 00 00 00 00 00 00 00 00 00 00 00 00 00
00004d20: 00 00 00 00 00 00 00 00 00 00 00 00 00 00 00 00
00004d30: 00 00 00 00 00 00 00 00 00 00 00 00 00 00 00 00
00004d40: 00 00 00 00 00 00 00 00 00 00 00 00 00 00 00 00
00004d50: 00 00 00 00 00 00 00 00 00 00 00 00 00 00 00 00
00004d60: 00 00 00 00 00 00 00 00 00 00 00 00 00 00 00 00
00004d70: 00 00 00 00 00 00 00 00 00 00 00 00 00 00 00 00
00004d80: 00 00 00 00 00 00 00 00 00 00 00 00 00 00 00 00
00004d90: 00 00 00 00 00 00 00 00 00 00 00 00 00 00 00 00
00004da0: 00 00 00 00 00 00 00 00 00 00 00 00 00 00 00 00
00004db0: 00 00 00 00 00 00 00 00 00 00 00 00 00 00 00 00
00004dc0: 00 00 00 00 00 00 00 00 00 00 00 00 00 00 00 00
00004dd0: 00 00 00 00 00 00 00 00 00 00 00 00 00 00 00 00
00004de0: 00 00 00 00 00 00 00 00 00 00 00 00 00 00 00 00
00004df0: 00 00 00 00 00 00 00 00 00 00 00 00 00 00 00 00
00004e00: 00 00 00 00 00 00 00 00 00 00 00 00 00 00 00 00
00004e10: 00 00 00 00 00 00 00 00 00 00 00 00 00 00 00 00
00004e20: 00 00 00 00 00 00 00 00 00 00 00 00 00 00 00 00
00004e30: 00 00 00 00 00 00 00 00 00 00 00 00 00 00 00 00
00004e40: 00 00 00 00 00 00 00 00 00 00 00 00 00 00 00 00
00004e50: 00 00 00 00 00 00 00 00 00 00 00 00 00 00 00 00
00004e60: 00 00 00 00 00 00 00 00 00 00 00 00 00 00 00 00
00004e70: 00 00 00 00 00 00 00 00 00 00 00 00 00 00 00 00
00004e80: 00 00 00 00 00 00 00 00 00 00 00 00 00 00 00 00
00004e90: 00 00 00 00 00 00 00 00 00 00 00 00 00 00 00 00
00004ea0: 00 00 00 00 00 00 00 00 00 00 00 00 00 00 00 00
00004eb0: 00 00 00 00 00 00 00 00 00 00 00 00 00 00 00 00
00004ec0: 00 00 00 00 00 00 00 00 00 00 00 00 00 00 00 00
00004ed0: 00 00 00 00 00 00 00 00 00 00 00 00 00 00 00 00
00004ee0: 00 00 00 00 00 00 00 00 00 00 00 00 00 00 00 00
00004ef0: 00 00 00 00 00 00 00 00 00 00 00 00 00 00 00 00
00004f00: 00 00 00 00 00 00 00 00 00 00 00 00 00 00 00 00
00004f10: 00 00 00 00 00 00 00 00 00 00 00 00 00 00 00 00
00004f20: 00 00 00 00 00 00 00 00 00 00 00 00 00 00 00 00
00004f30: 00 00 00 00 00 00 00 00 00 00 00 00 00 00 00 00
00004f40: 00 00 00 00 00 00 00 00 00 00 00 00 00 00 00 00
00004f50: 00 00 00 00 00 00 00 00 00 00 00 00 00 00 00 00
00004f60: 00 00 00 00 00 00 00 00 00 00 00 00 00 00 00 00
00004f70: 00 00 00 00 00 00 00 00 00 00 00 00 00 00 00 00
00004f80: 00 00 00 00 00 00 00 00 00 00 00 00 00 00 00 00
00004f90: 00 00 00 00 00 00 00 00 00 00 00 00 00 00 00 00
00004fa0: 00 00 00 00 00 00 00 00 00 00 00 00 00 00 00 00
00004fb0: 00 00 00 00 00 00 00 00 00 00 00 00 00 00 00 00
00004fc0: 00 00 00 00 00 00 00 00 00 00 00 00 00 00 00 00
00004fd0: 00 00 00 00 00 00 00 00 00 00 00 00 00 00 00 00
00004fe0: 00 00 00 00 00 00 00 00 00 00 00 00 00 00 00 00
00004ff0: 00 00 00 00 00 00 00 00 00 00 00 00 00 00 00 00
00005000: 00 00 00 00 00 00 00 00 00 00 00 00 00 00 00 00
00005010: 00 00 00 00 00 00 00 00 00 00 00 00 00 00 00 00
00005020: 00 00 00 00 00 00 00 00 00 00 00 00 00 00 00 00
00005030: 00 00 00 00 00 00 00 00 00 00 00 00 00 00 00 00
00005040: 00 00 00 00 00 00 00 00 00 00 00 00 00 00 00 00
00005050: 00 00 00 00 00 00 00 00 00 00 00 00 00 00 00 00
00005060: 00 00 00 00 00 00 00 00 00 00 00 00 00 00 00 00
00005070: 00 00 00 00 00 00 00 00 00 00 00 00 00 00 00 00
00005080: 00 00 00 00 00 00 00 00 00 00 00 00 00 00 00 00
00005090: 00 00 00 00 00 00 00 00 00 00 00 00 00 00 00 00

